%!PS-Adobe-3.0 EPSF-3.0
%Produced by poppler pdftops version: 0.24.5 (http://poppler.freedesktop.org)
%%LanguageLevel: 2
%%DocumentSuppliedResources: (atend)
%%BoundingBox: 0 0 854 484
%%HiResBoundingBox: 0 0 854 484
%%DocumentSuppliedResources: (atend)
%%EndComments
%%BeginProlog
%%BeginResource: procset xpdf 3.00 0
%%Copyright: Copyright 1996-2011 Glyph & Cog, LLC
/xpdf 75 dict def xpdf begin
% PDF special state
/pdfDictSize 15 def
/pdfSetup {
  /setpagedevice where {
    pop 2 dict begin
      /Policies 1 dict dup begin /PageSize 6 def end def
      { /Duplex true def } if
    currentdict end setpagedevice
  } {
    pop
  } ifelse
} def
/pdfSetupPaper {
  2 array astore
  /setpagedevice where {
    pop 2 dict begin
      /PageSize exch def
      /ImagingBBox null def
    currentdict end setpagedevice
  } {
    pop
  } ifelse
} def
/pdfStartPage {
  pdfDictSize dict begin
  /pdfFillCS [] def
  /pdfFillXform {} def
  /pdfStrokeCS [] def
  /pdfStrokeXform {} def
  /pdfFill [0] def
  /pdfStroke [0] def
  /pdfFillOP false def
  /pdfStrokeOP false def
  /pdfLastFill false def
  /pdfLastStroke false def
  /pdfTextMat [1 0 0 1 0 0] def
  /pdfFontSize 0 def
  /pdfCharSpacing 0 def
  /pdfTextRender 0 def
  /pdfPatternCS false def
  /pdfTextRise 0 def
  /pdfWordSpacing 0 def
  /pdfHorizScaling 1 def
  /pdfTextClipPath [] def
} def
/pdfEndPage { end } def
% PDF color state
/cs { /pdfFillXform exch def dup /pdfFillCS exch def
      setcolorspace } def
/CS { /pdfStrokeXform exch def dup /pdfStrokeCS exch def
      setcolorspace } def
/sc { pdfLastFill not { pdfFillCS setcolorspace } if
      dup /pdfFill exch def aload pop pdfFillXform setcolor
     /pdfLastFill true def /pdfLastStroke false def } def
/SC { pdfLastStroke not { pdfStrokeCS setcolorspace } if
      dup /pdfStroke exch def aload pop pdfStrokeXform setcolor
     /pdfLastStroke true def /pdfLastFill false def } def
/op { /pdfFillOP exch def
      pdfLastFill { pdfFillOP setoverprint } if } def
/OP { /pdfStrokeOP exch def
      pdfLastStroke { pdfStrokeOP setoverprint } if } def
/fCol {
  pdfLastFill not {
    pdfFillCS setcolorspace
    pdfFill aload pop pdfFillXform setcolor
    pdfFillOP setoverprint
    /pdfLastFill true def /pdfLastStroke false def
  } if
} def
/sCol {
  pdfLastStroke not {
    pdfStrokeCS setcolorspace
    pdfStroke aload pop pdfStrokeXform setcolor
    pdfStrokeOP setoverprint
    /pdfLastStroke true def /pdfLastFill false def
  } if
} def
% build a font
/pdfMakeFont {
  4 3 roll findfont
  4 2 roll matrix scale makefont
  dup length dict begin
    { 1 index /FID ne { def } { pop pop } ifelse } forall
    /Encoding exch def
    currentdict
  end
  definefont pop
} def
/pdfMakeFont16 {
  exch findfont
  dup length dict begin
    { 1 index /FID ne { def } { pop pop } ifelse } forall
    /WMode exch def
    currentdict
  end
  definefont pop
} def
% graphics state operators
/q { gsave pdfDictSize dict begin } def
/Q {
  end grestore
  /pdfLastFill where {
    pop
    pdfLastFill {
      pdfFillOP setoverprint
    } {
      pdfStrokeOP setoverprint
    } ifelse
  } if
} def
/cm { concat } def
/d { setdash } def
/i { setflat } def
/j { setlinejoin } def
/J { setlinecap } def
/M { setmiterlimit } def
/w { setlinewidth } def
% path segment operators
/m { moveto } def
/l { lineto } def
/c { curveto } def
/re { 4 2 roll moveto 1 index 0 rlineto 0 exch rlineto
      neg 0 rlineto closepath } def
/h { closepath } def
% path painting operators
/S { sCol stroke } def
/Sf { fCol stroke } def
/f { fCol fill } def
/f* { fCol eofill } def
% clipping operators
/W { clip newpath } def
/W* { eoclip newpath } def
/Ws { strokepath clip newpath } def
% text state operators
/Tc { /pdfCharSpacing exch def } def
/Tf { dup /pdfFontSize exch def
      dup pdfHorizScaling mul exch matrix scale
      pdfTextMat matrix concatmatrix dup 4 0 put dup 5 0 put
      exch findfont exch makefont setfont } def
/Tr { /pdfTextRender exch def } def
/Tp { /pdfPatternCS exch def } def
/Ts { /pdfTextRise exch def } def
/Tw { /pdfWordSpacing exch def } def
/Tz { /pdfHorizScaling exch def } def
% text positioning operators
/Td { pdfTextMat transform moveto } def
/Tm { /pdfTextMat exch def } def
% text string operators
/xyshow where {
  pop
  /xyshow2 {
    dup length array
    0 2 2 index length 1 sub {
      2 index 1 index 2 copy get 3 1 roll 1 add get
      pdfTextMat dtransform
      4 2 roll 2 copy 6 5 roll put 1 add 3 1 roll dup 4 2 roll put
    } for
    exch pop
    xyshow
  } def
}{
  /xyshow2 {
    currentfont /FontType get 0 eq {
      0 2 3 index length 1 sub {
        currentpoint 4 index 3 index 2 getinterval show moveto
        2 copy get 2 index 3 2 roll 1 add get
        pdfTextMat dtransform rmoveto
      } for
    } {
      0 1 3 index length 1 sub {
        currentpoint 4 index 3 index 1 getinterval show moveto
        2 copy 2 mul get 2 index 3 2 roll 2 mul 1 add get
        pdfTextMat dtransform rmoveto
      } for
    } ifelse
    pop pop
  } def
} ifelse
/cshow where {
  pop
  /xycp {
    0 3 2 roll
    {
      pop pop currentpoint 3 2 roll
      1 string dup 0 4 3 roll put false charpath moveto
      2 copy get 2 index 2 index 1 add get
      pdfTextMat dtransform rmoveto
      2 add
    } exch cshow
    pop pop
  } def
}{
  /xycp {
    currentfont /FontType get 0 eq {
      0 2 3 index length 1 sub {
        currentpoint 4 index 3 index 2 getinterval false charpath moveto
        2 copy get 2 index 3 2 roll 1 add get
        pdfTextMat dtransform rmoveto
      } for
    } {
      0 1 3 index length 1 sub {
        currentpoint 4 index 3 index 1 getinterval false charpath moveto
        2 copy 2 mul get 2 index 3 2 roll 2 mul 1 add get
        pdfTextMat dtransform rmoveto
      } for
    } ifelse
    pop pop
  } def
} ifelse
/Tj {
  fCol
  0 pdfTextRise pdfTextMat dtransform rmoveto
  currentpoint 4 2 roll
  pdfTextRender 1 and 0 eq {
    2 copy xyshow2
  } if
  pdfTextRender 3 and dup 1 eq exch 2 eq or {
    3 index 3 index moveto
    2 copy
    currentfont /FontType get 3 eq { fCol } { sCol } ifelse
    xycp currentpoint stroke moveto
  } if
  pdfTextRender 4 and 0 ne {
    4 2 roll moveto xycp
    /pdfTextClipPath [ pdfTextClipPath aload pop
      {/moveto cvx}
      {/lineto cvx}
      {/curveto cvx}
      {/closepath cvx}
    pathforall ] def
    currentpoint newpath moveto
  } {
    pop pop pop pop
  } ifelse
  0 pdfTextRise neg pdfTextMat dtransform rmoveto
} def
/TJm { 0.001 mul pdfFontSize mul pdfHorizScaling mul neg 0
       pdfTextMat dtransform rmoveto } def
/TJmV { 0.001 mul pdfFontSize mul neg 0 exch
        pdfTextMat dtransform rmoveto } def
/Tclip { pdfTextClipPath cvx exec clip newpath
         /pdfTextClipPath [] def } def
/Tclip* { pdfTextClipPath cvx exec eoclip newpath
         /pdfTextClipPath [] def } def
% Level 2/3 image operators
/pdfImBuf 100 string def
/pdfImStr {
  2 copy exch length lt {
    2 copy get exch 1 add exch
  } {
    ()
  } ifelse
} def
/skipEOD {
  { currentfile pdfImBuf readline
    not { pop exit } if
    (%-EOD-) eq { exit } if } loop
} def
/pdfIm { image skipEOD } def
/pdfImM { fCol imagemask skipEOD } def
/pr { 2 index 2 index 3 2 roll putinterval 4 add } def
/pdfImClip {
  gsave
  0 2 4 index length 1 sub {
    dup 4 index exch 2 copy
    get 5 index div put
    1 add 3 index exch 2 copy
    get 3 index div put
  } for
  pop pop rectclip
} def
/pdfImClipEnd { grestore } def
% shading operators
/colordelta {
  false 0 1 3 index length 1 sub {
    dup 4 index exch get 3 index 3 2 roll get sub abs 0.004 gt {
      pop true
    } if
  } for
  exch pop exch pop
} def
/funcCol { func n array astore } def
/funcSH {
  dup 0 eq {
    true
  } {
    dup 6 eq {
      false
    } {
      4 index 4 index funcCol dup
      6 index 4 index funcCol dup
      3 1 roll colordelta 3 1 roll
      5 index 5 index funcCol dup
      3 1 roll colordelta 3 1 roll
      6 index 8 index funcCol dup
      3 1 roll colordelta 3 1 roll
      colordelta or or or
    } ifelse
  } ifelse
  {
    1 add
    4 index 3 index add 0.5 mul exch 4 index 3 index add 0.5 mul exch
    6 index 6 index 4 index 4 index 4 index funcSH
    2 index 6 index 6 index 4 index 4 index funcSH
    6 index 2 index 4 index 6 index 4 index funcSH
    5 3 roll 3 2 roll funcSH pop pop
  } {
    pop 3 index 2 index add 0.5 mul 3 index  2 index add 0.5 mul
    funcCol sc
    dup 4 index exch mat transform m
    3 index 3 index mat transform l
    1 index 3 index mat transform l
    mat transform l pop pop h f*
  } ifelse
} def
/axialCol {
  dup 0 lt {
    pop t0
  } {
    dup 1 gt {
      pop t1
    } {
      dt mul t0 add
    } ifelse
  } ifelse
  func n array astore
} def
/axialSH {
  dup 0 eq {
    true
  } {
    dup 8 eq {
      false
    } {
      2 index axialCol 2 index axialCol colordelta
    } ifelse
  } ifelse
  {
    1 add 3 1 roll 2 copy add 0.5 mul
    dup 4 3 roll exch 4 index axialSH
    exch 3 2 roll axialSH
  } {
    pop 2 copy add 0.5 mul
    axialCol sc
    exch dup dx mul x0 add exch dy mul y0 add
    3 2 roll dup dx mul x0 add exch dy mul y0 add
    dx abs dy abs ge {
      2 copy yMin sub dy mul dx div add yMin m
      yMax sub dy mul dx div add yMax l
      2 copy yMax sub dy mul dx div add yMax l
      yMin sub dy mul dx div add yMin l
      h f*
    } {
      exch 2 copy xMin sub dx mul dy div add xMin exch m
      xMax sub dx mul dy div add xMax exch l
      exch 2 copy xMax sub dx mul dy div add xMax exch l
      xMin sub dx mul dy div add xMin exch l
      h f*
    } ifelse
  } ifelse
} def
/radialCol {
  dup t0 lt {
    pop t0
  } {
    dup t1 gt {
      pop t1
    } if
  } ifelse
  func n array astore
} def
/radialSH {
  dup 0 eq {
    true
  } {
    dup 8 eq {
      false
    } {
      2 index dt mul t0 add radialCol
      2 index dt mul t0 add radialCol colordelta
    } ifelse
  } ifelse
  {
    1 add 3 1 roll 2 copy add 0.5 mul
    dup 4 3 roll exch 4 index radialSH
    exch 3 2 roll radialSH
  } {
    pop 2 copy add 0.5 mul dt mul t0 add
    radialCol sc
    encl {
      exch dup dx mul x0 add exch dup dy mul y0 add exch dr mul r0 add
      0 360 arc h
      dup dx mul x0 add exch dup dy mul y0 add exch dr mul r0 add
      360 0 arcn h f
    } {
      2 copy
      dup dx mul x0 add exch dup dy mul y0 add exch dr mul r0 add
      a1 a2 arcn
      dup dx mul x0 add exch dup dy mul y0 add exch dr mul r0 add
      a2 a1 arcn h
      dup dx mul x0 add exch dup dy mul y0 add exch dr mul r0 add
      a1 a2 arc
      dup dx mul x0 add exch dup dy mul y0 add exch dr mul r0 add
      a2 a1 arc h f
    } ifelse
  } ifelse
} def
end
%%EndResource
%%EndProlog
%%BeginSetup
xpdf begin
%%EndSetup
pdfStartPage
[] 0 d
1 i
0 j
0 J
10 M
1 w
/DeviceGray {} cs
[0] sc
/DeviceGray {} CS
[0] SC
false op
false OP
{} settransfer
0 0 854 484 re
W
q
[1 0 0 -1 0 484] cm
[0.749781 0 0 0.750388 0 0] cm
[0.24 0 0 0.24 0 0] cm
q
[4.166667 0 0 4.166667 0 0] cm
0 0 1139 645 re
W
/DeviceGray {} cs
[1] sc
/DeviceGray {} CS
[0] SC
0 0 1139 645 re
f
Q
q
[4.166667 0 0 4.166667 0 0] cm
0 0 1139 645 re
W
/DeviceGray {} cs
[1] sc
/DeviceGray {} CS
[0] SC
80 100 932 465 re
f
Q
q
[4.166667 0 0 4.166667 527.500005 416.666676] cm
-126.599998 -100 1139 645 re
W
/DeviceGray {} CS
[0] SC
0 0 m
0 465 l
f
Q
q
[4.166667 0 0 4.166667 527.500005 416.666676] cm
-126.599998 -100 1139 645 re
W
/DeviceGray {} CS
[0.9333] SC
/DeviceGray {} cs
[0] sc
0 J
0 j
1 w
4 M
0 0 m
0 465 l
S
Q
q
[4.166667 0 0 4.166667 1226.50003 416.666676] cm
-294.360001 -100 1139 645 re
W
/DeviceGray {} CS
[0] SC
0 0 m
0 465 l
f
Q
q
[4.166667 0 0 4.166667 1226.50003 416.666676] cm
-294.360001 -100 1139 645 re
W
/DeviceGray {} CS
[0.9333] SC
/DeviceGray {} cs
[0] sc
0 J
0 j
1 w
4 M
0 0 m
0 465 l
S
Q
q
[4.166667 0 0 4.166667 1925.500023 416.666676] cm
-462.119995 -100 1139 645 re
W
/DeviceGray {} CS
[0] SC
0 0 m
0 465 l
f
Q
q
[4.166667 0 0 4.166667 1925.500023 416.666676] cm
-462.119995 -100 1139 645 re
W
/DeviceGray {} CS
[0.9333] SC
/DeviceGray {} cs
[0] sc
0 J
0 j
1 w
4 M
0 0 m
0 465 l
S
Q
q
[4.166667 0 0 4.166667 2624.500079 416.666676] cm
-629.880005 -100 1139 645 re
W
/DeviceGray {} CS
[0] SC
0 0 m
0 465 l
f
Q
q
[4.166667 0 0 4.166667 2624.500079 416.666676] cm
-629.880005 -100 1139 645 re
W
/DeviceGray {} CS
[0.9333] SC
/DeviceGray {} cs
[0] sc
0 J
0 j
1 w
4 M
0 0 m
0 465 l
S
Q
q
[4.166667 0 0 4.166667 3323.500135 416.666676] cm
-797.640015 -100 1139 645 re
W
/DeviceGray {} CS
[0] SC
0 0 m
0 465 l
f
Q
q
[4.166667 0 0 4.166667 3323.500135 416.666676] cm
-797.640015 -100 1139 645 re
W
/DeviceGray {} CS
[0.9333] SC
/DeviceGray {} cs
[0] sc
0 J
0 j
1 w
4 M
0 0 m
0 465 l
S
Q
q
[4.166667 0 0 4.166667 4022.500192 416.666676] cm
-965.400024 -100 1139 645 re
W
/DeviceGray {} CS
[0] SC
0 0 m
0 465 l
f
Q
q
[4.166667 0 0 4.166667 4022.500192 416.666676] cm
-965.400024 -100 1139 645 re
W
/DeviceGray {} CS
[0.9333] SC
/DeviceGray {} cs
[0] sc
0 J
0 j
1 w
4 M
0 0 m
0 465 l
S
Q
q
[4.166667 0 0 4.166667 333.333341 2319.958421] cm
-80 -556.790009 1139 645 re
W
/DeviceGray {} CS
[0] SC
0 0 m
932 0 l
f
Q
q
[4.166667 0 0 4.166667 333.333341 2319.958421] cm
-80 -556.790009 1139 645 re
W
/DeviceGray {} CS
[0.9333] SC
/DeviceGray {} cs
[0] sc
0 J
0 j
1 w
4 M
0 0 m
932 0 l
S
Q
q
[4.166667 0 0 4.166667 333.333341 2051.000005] cm
-80 -492.23999 1139 645 re
W
/DeviceGray {} CS
[0] SC
0 0 m
932 0 l
f
Q
q
[4.166667 0 0 4.166667 333.333341 2051.000005] cm
-80 -492.23999 1139 645 re
W
/DeviceGray {} CS
[0.9333] SC
/DeviceGray {} cs
[0] sc
0 J
0 j
1 w
4 M
0 0 m
932 0 l
S
Q
q
[4.166667 0 0 4.166667 333.333341 1782.041717] cm
-80 -427.690002 1139 645 re
W
/DeviceGray {} CS
[0] SC
0 0 m
932 0 l
f
Q
q
[4.166667 0 0 4.166667 333.333341 1782.041717] cm
-80 -427.690002 1139 645 re
W
/DeviceGray {} CS
[0.9333] SC
/DeviceGray {} cs
[0] sc
0 J
0 j
1 w
4 M
0 0 m
932 0 l
S
Q
q
[4.166667 0 0 4.166667 333.333341 1513.083428] cm
-80 -363.140015 1139 645 re
W
/DeviceGray {} CS
[0] SC
0 0 m
932 0 l
f
Q
q
[4.166667 0 0 4.166667 333.333341 1513.083428] cm
-80 -363.140015 1139 645 re
W
/DeviceGray {} CS
[0.9333] SC
/DeviceGray {} cs
[0] sc
0 J
0 j
1 w
4 M
0 0 m
932 0 l
S
Q
q
[4.166667 0 0 4.166667 333.333341 1244.083369] cm
-80 -298.580002 1139 645 re
W
/DeviceGray {} CS
[0] SC
0 0 m
932 0 l
f
Q
q
[4.166667 0 0 4.166667 333.333341 1244.083369] cm
-80 -298.580002 1139 645 re
W
/DeviceGray {} CS
[0.9333] SC
/DeviceGray {} cs
[0] sc
0 J
0 j
1 w
4 M
0 0 m
932 0 l
S
Q
q
[4.166667 0 0 4.166667 333.333341 975.125017] cm
-80 -234.029999 1139 645 re
W
/DeviceGray {} CS
[0] SC
0 0 m
932 0 l
f
Q
q
[4.166667 0 0 4.166667 333.333341 975.125017] cm
-80 -234.029999 1139 645 re
W
/DeviceGray {} CS
[0.9333] SC
/DeviceGray {} cs
[0] sc
0 J
0 j
1 w
4 M
0 0 m
932 0 l
S
Q
q
[4.166667 0 0 4.166667 333.333341 706.166696] cm
-80 -169.480003 1139 645 re
W
/DeviceGray {} CS
[0] SC
0 0 m
932 0 l
f
Q
q
[4.166667 0 0 4.166667 333.333341 706.166696] cm
-80 -169.480003 1139 645 re
W
/DeviceGray {} CS
[0.9333] SC
/DeviceGray {} cs
[0] sc
0 J
0 j
1 w
4 M
0 0 m
932 0 l
S
Q
q
[4.166667 0 0 4.166667 333.333341 437.208342] cm
-80 -104.93 1139 645 re
W
/DeviceGray {} CS
[0] SC
0 0 m
932 0 l
f
Q
q
[4.166667 0 0 4.166667 333.333341 437.208342] cm
-80 -104.93 1139 645 re
W
/DeviceGray {} CS
[0.9333] SC
/DeviceGray {} cs
[0] sc
0 J
0 j
1 w
4 M
0 0 m
932 0 l
S
Q
q
[4.166667 0 0 4.166667 333.333341 416.666676] cm
0.000001 0.000003 932.000055 465.000004 re
W
/DeviceRGB {} CS
[0.1216 0.4667 0.7059] SC
/DeviceGray {} cs
[0] sc
0 J
0 j
2 w
2 M
46.599998 23.25 m
130.479996 77.279999 l
214.360001 128.020004 l
298.23999 175.720001 l
382.119995 220.610001 l
466 262.899994 l
549.880005 302.799988 l
633.76001 340.480011 l
717.640015 376.100006 l
801.52002 409.809998 l
885.400024 441.75 l
S
Q
q
[4.166667 0 0 4.166667 527.500005 513.541678] cm
-46.599998 -23.249997 932.000055 465.000004 re
W
/DeviceRGB {} cs
[0.1216 0.4667 0.7059] sc
/DeviceGray {} CS
[0] SC
3 0 m
3 1.656854 1.656854 3 0 3 c
-1.656854 3 -3 1.656854 -3 0 c
-3 -1.656854 -1.656854 -3 0 -3 c
0 -3 l
1.656854 -3 3 -1.656854 3 0 c
h
f
Q
q
[4.166667 0 0 4.166667 877.000002 738.666678] cm
-130.479995 -77.279996 932.000055 465.000004 re
W
/DeviceRGB {} cs
[0.1216 0.4667 0.7059] sc
/DeviceGray {} CS
[0] SC
3 0 m
3 1.656854 1.656854 3 0 3 c
-1.656854 3 -3 1.656854 -3 0 c
-3 -1.656854 -1.656854 -3 0 -3 c
0 -3 l
1.656854 -3 3 -1.656854 3 0 c
h
f
Q
q
[4.166667 0 0 4.166667 1226.50003 950.083372] cm
-214.36 -128.020002 932.000055 465.000004 re
W
/DeviceRGB {} cs
[0.1216 0.4667 0.7059] sc
/DeviceGray {} CS
[0] SC
3 0 m
3 1.656854 1.656854 3 0 3 c
-1.656854 3 -3 1.656854 -3 0 c
-3 -1.656854 -1.656854 -3 0 -3 c
0 -3 l
1.656854 -3 3 -1.656854 3 0 c
h
f
Q
q
[4.166667 0 0 4.166667 1575.999995 1148.833364] cm
-298.23999 -175.719999 932.000055 465.000004 re
W
/DeviceRGB {} cs
[0.1216 0.4667 0.7059] sc
/DeviceGray {} CS
[0] SC
3 0 m
3 1.656854 1.656854 3 0 3 c
-1.656854 3 -3 1.656854 -3 0 c
-3 -1.656854 -1.656854 -3 0 -3 c
0 -3 l
1.656854 -3 3 -1.656854 3 0 c
h
f
Q
q
[4.166667 0 0 4.166667 1925.500023 1335.875032] cm
-382.119994 -220.609998 932.000055 465.000004 re
W
/DeviceRGB {} cs
[0.1216 0.4667 0.7059] sc
/DeviceGray {} CS
[0] SC
3 0 m
3 1.656854 1.656854 3 0 3 c
-1.656854 3 -3 1.656854 -3 0 c
-3 -1.656854 -1.656854 -3 0 -3 c
0 -3 l
1.656854 -3 3 -1.656854 3 0 c
h
f
Q
q
[4.166667 0 0 4.166667 2275.000051 1512.083342] cm
-465.999999 -262.899991 932.000055 465.000004 re
W
/DeviceRGB {} cs
[0.1216 0.4667 0.7059] sc
/DeviceGray {} CS
[0] SC
3 0 m
3 1.656854 1.656854 3 0 3 c
-1.656854 3 -3 1.656854 -3 0 c
-3 -1.656854 -1.656854 -3 0 -3 c
0 -3 l
1.656854 -3 3 -1.656854 3 0 c
h
f
Q
q
[4.166667 0 0 4.166667 2624.500079 1678.33332] cm
-549.880004 -302.799985 932.000055 465.000004 re
W
/DeviceRGB {} cs
[0.1216 0.4667 0.7059] sc
/DeviceGray {} CS
[0] SC
3 0 m
3 1.656854 1.656854 3 0 3 c
-1.656854 3 -3 1.656854 -3 0 c
-3 -1.656854 -1.656854 -3 0 -3 c
0 -3 l
1.656854 -3 3 -1.656854 3 0 c
h
f
Q
q
[4.166667 0 0 4.166667 2974.000107 1835.33342] cm
-633.760009 -340.480008 932.000055 465.000004 re
W
/DeviceRGB {} cs
[0.1216 0.4667 0.7059] sc
/DeviceGray {} CS
[0] SC
3 0 m
3 1.656854 1.656854 3 0 3 c
-1.656854 3 -3 1.656854 -3 0 c
-3 -1.656854 -1.656854 -3 0 -3 c
0 -3 l
1.656854 -3 3 -1.656854 3 0 c
h
f
Q
q
[4.166667 0 0 4.166667 3323.500135 1983.75007] cm
-717.640014 -376.100003 932.000055 465.000004 re
W
/DeviceRGB {} cs
[0.1216 0.4667 0.7059] sc
/DeviceGray {} CS
[0] SC
3 0 m
3 1.656854 1.656854 3 0 3 c
-1.656854 3 -3 1.656854 -3 0 c
-3 -1.656854 -1.656854 -3 0 -3 c
0 -3 l
1.656854 -3 3 -1.656854 3 0 c
h
f
Q
q
[4.166667 0 0 4.166667 3673.000163 2124.208371] cm
-801.520019 -409.809995 932.000055 465.000004 re
W
/DeviceRGB {} cs
[0.1216 0.4667 0.7059] sc
/DeviceGray {} CS
[0] SC
3 0 m
3 1.656854 1.656854 3 0 3 c
-1.656854 3 -3 1.656854 -3 0 c
-3 -1.656854 -1.656854 -3 0 -3 c
0 -3 l
1.656854 -3 3 -1.656854 3 0 c
h
f
Q
q
[4.166667 0 0 4.166667 4022.500192 2257.291717] cm
-885.400024 -441.749997 932.000055 465.000004 re
W
/DeviceRGB {} cs
[0.1216 0.4667 0.7059] sc
/DeviceGray {} CS
[0] SC
3 0 m
3 1.656854 1.656854 3 0 3 c
-1.656854 3 -3 1.656854 -3 0 c
-3 -1.656854 -1.656854 -3 0 -3 c
0 -3 l
1.656854 -3 3 -1.656854 3 0 c
h
f
Q
q
[1.041667 0 0 1.041667 527.500005 416.666676] cm
-506.399994 -400 4556.000092 2580 re
W
/DeviceGray {} cs
[0.2667] sc
/DeviceGray {} CS
[0] SC
8.390625 1920 m
4.59375 1920 l
4.59375 1895.578125 l
4.59375 1892.53125 4.78125 1889.8125 4.78125 1889.8125 c
4.28125 1890.296875 3.671875 1890.835938 3.671875 1890.835938 c
3.0625 1891.375 -1.90625 1895.40625 -1.90625 1895.40625 c
-3.96875 1892.734375 l
5.109375 1885.734375 l
8.390625 1885.734375 l
8.390625 1920 l
h
f
Q
q
[1.041667 0 0 1.041667 1226.50003 416.666676] cm
-1177.439941 -400 4556 2580 re
W
/DeviceGray {} cs
[0.2667] sc
/DeviceGray {} CS
[0] SC
-15.78125 1920 m
-19.578125 1920 l
-19.578125 1895.578125 l
-19.578125 1892.53125 -19.390625 1889.8125 -19.390625 1889.8125 c
-19.890625 1890.296875 -20.5 1890.835938 -20.5 1890.835938 c
-21.109375 1891.375 -26.078125 1895.40625 -26.078125 1895.40625 c
-28.140625 1892.734375 l
-19.0625 1885.734375 l
-15.78125 1885.734375 l
-15.78125 1920 l
h
-1.53125 1917.515625 m
-1.53125 1915.9375 -0.8125 1915.132812 -0.8125 1915.132812 c
-0.09375 1914.328125 1.234375 1914.328125 1.234375 1914.328125 c
2.59375 1914.328125 3.359375 1915.132812 3.359375 1915.132812 c
4.125 1915.9375 4.125 1917.515625 4.125 1917.515625 c
4.125 1919.03125 3.351562 1919.859375 3.351562 1919.859375 c
2.578125 1920.6875 1.234375 1920.6875 1.234375 1920.6875 c
0.046875 1920.6875 -0.742188 1919.945313 -0.742188 1919.945313 c
-1.53125 1919.203125 -1.53125 1917.515625 -1.53125 1917.515625 c
h
32.546875 1920 m
10.015625 1920 l
10.015625 1916.640625 l
19.046875 1907.578125 l
23.171875 1903.40625 24.484375 1901.625 24.484375 1901.625 c
25.796875 1899.84375 26.453125 1898.15625 26.453125 1898.15625 c
27.109375 1896.46875 27.109375 1894.515625 27.109375 1894.515625 c
27.109375 1891.78125 25.445312 1890.171875 25.445312 1890.171875 c
23.78125 1888.5625 20.828125 1888.5625 20.828125 1888.5625 c
18.6875 1888.5625 16.78125 1889.265625 16.78125 1889.265625 c
14.875 1889.96875 12.53125 1891.828125 12.53125 1891.828125 c
10.46875 1889.171875 l
15.203125 1885.234375 20.78125 1885.234375 20.78125 1885.234375 c
25.609375 1885.234375 28.351563 1887.710938 28.351563 1887.710938 c
31.09375 1890.1875 31.09375 1894.359375 31.09375 1894.359375 c
31.09375 1897.609375 29.265625 1900.796875 29.265625 1900.796875 c
27.4375 1903.984375 22.421875 1908.859375 22.421875 1908.859375 c
14.921875 1916.203125 l
14.921875 1916.390625 l
32.546875 1916.390625 l
32.546875 1920 l
h
f
Q
q
[1.041667 0 0 1.041667 1925.500023 416.666676] cm
-1848.47998 -400 4556 2580 re
W
/DeviceGray {} cs
[0.2667] sc
/DeviceGray {} CS
[0] SC
-16.578125 1920 m
-20.375 1920 l
-20.375 1895.578125 l
-20.375 1892.53125 -20.1875 1889.8125 -20.1875 1889.8125 c
-20.6875 1890.296875 -21.296875 1890.835938 -21.296875 1890.835938 c
-21.90625 1891.375 -26.875 1895.40625 -26.875 1895.40625 c
-28.9375 1892.734375 l
-19.859375 1885.734375 l
-16.578125 1885.734375 l
-16.578125 1920 l
h
-2.34375 1917.515625 m
-2.34375 1915.9375 -1.625 1915.132812 -1.625 1915.132812 c
-0.90625 1914.328125 0.421875 1914.328125 0.421875 1914.328125 c
1.78125 1914.328125 2.546875 1915.132812 2.546875 1915.132812 c
3.3125 1915.9375 3.3125 1917.515625 3.3125 1917.515625 c
3.3125 1919.03125 2.539062 1919.859375 2.539062 1919.859375 c
1.765625 1920.6875 0.421875 1920.6875 0.421875 1920.6875 c
-0.765625 1920.6875 -1.554688 1919.945313 -1.554688 1919.945313 c
-2.34375 1919.203125 -2.34375 1917.515625 -2.34375 1917.515625 c
h
33.34375 1912.125 m
28.265625 1912.125 l
28.265625 1920 l
24.53125 1920 l
24.53125 1912.125 l
7.875 1912.125 l
7.875 1908.71875 l
24.140625 1885.546875 l
28.265625 1885.546875 l
28.265625 1908.578125 l
33.34375 1908.578125 l
33.34375 1912.125 l
h
24.53125 1908.578125 m
24.53125 1897.1875 l
24.53125 1893.84375 24.765625 1889.625 24.765625 1889.625 c
24.578125 1889.625 l
23.453125 1891.875 22.46875 1893.34375 22.46875 1893.34375 c
11.765625 1908.578125 l
24.53125 1908.578125 l
h
f
Q
q
[1.041667 0 0 1.041667 2624.500079 416.666676] cm
-2519.52002 -400 4556 2580 re
W
/DeviceGray {} cs
[0.2667] sc
/DeviceGray {} CS
[0] SC
-15.890625 1920 m
-19.6875 1920 l
-19.6875 1895.578125 l
-19.6875 1892.53125 -19.5 1889.8125 -19.5 1889.8125 c
-20 1890.296875 -20.609375 1890.835938 -20.609375 1890.835938 c
-21.21875 1891.375 -26.1875 1895.40625 -26.1875 1895.40625 c
-28.25 1892.734375 l
-19.171875 1885.734375 l
-15.890625 1885.734375 l
-15.890625 1920 l
h
-1.65625 1917.515625 m
-1.65625 1915.9375 -0.9375 1915.132812 -0.9375 1915.132812 c
-0.21875 1914.328125 1.109375 1914.328125 1.109375 1914.328125 c
2.46875 1914.328125 3.234375 1915.132812 3.234375 1915.132812 c
4 1915.9375 4 1917.515625 4 1917.515625 c
4 1919.03125 3.226563 1919.859375 3.226563 1919.859375 c
2.453125 1920.6875 1.109375 1920.6875 1.109375 1920.6875 c
-0.078125 1920.6875 -0.867188 1919.945313 -0.867188 1919.945313 c
-1.65625 1919.203125 -1.65625 1917.515625 -1.65625 1917.515625 c
h
10.296875 1905.34375 m
10.296875 1895.25 14.21875 1890.242188 14.21875 1890.242188 c
18.140625 1885.234375 25.828125 1885.234375 25.828125 1885.234375 c
28.484375 1885.234375 30 1885.6875 30 1885.6875 c
30 1889.03125 l
28.203125 1888.453125 25.875 1888.453125 25.875 1888.453125 c
20.375 1888.453125 17.46875 1891.882812 17.46875 1891.882812 c
14.5625 1895.3125 14.28125 1902.671875 14.28125 1902.671875 c
14.5625 1902.671875 l
17.140625 1898.640625 22.71875 1898.640625 22.71875 1898.640625 c
27.328125 1898.640625 29.992187 1901.429688 29.992187 1901.429688 c
32.65625 1904.21875 32.65625 1909 32.65625 1909 c
32.65625 1914.34375 29.734375 1917.40625 29.734375 1917.40625 c
26.8125 1920.46875 21.84375 1920.46875 21.84375 1920.46875 c
16.53125 1920.46875 13.414063 1916.46875 13.414063 1916.46875 c
10.296875 1912.46875 10.296875 1905.34375 10.296875 1905.34375 c
h
21.796875 1917.15625 m
25.125 1917.15625 26.96875 1915.0625 26.96875 1915.0625 c
28.8125 1912.96875 28.8125 1909 28.8125 1909 c
28.8125 1905.609375 27.101563 1903.664062 27.101563 1903.664062 c
25.390625 1901.71875 21.984375 1901.71875 21.984375 1901.71875 c
19.875 1901.71875 18.117188 1902.585938 18.117188 1902.585938 c
16.359375 1903.453125 15.320313 1904.976563 15.320313 1904.976563 c
14.28125 1906.5 14.28125 1908.140625 14.28125 1908.140625 c
14.28125 1910.546875 15.21875 1912.632812 15.21875 1912.632812 c
16.15625 1914.71875 17.875 1915.9375 17.875 1915.9375 c
19.59375 1917.15625 21.796875 1917.15625 21.796875 1917.15625 c
h
f
Q
q
[1.041667 0 0 1.041667 3323.500135 416.666676] cm
-3190.560059 -400 4556 2580 re
W
/DeviceGray {} cs
[0.2667] sc
/DeviceGray {} CS
[0] SC
-15.828125 1920 m
-19.625 1920 l
-19.625 1895.578125 l
-19.625 1892.53125 -19.4375 1889.8125 -19.4375 1889.8125 c
-19.9375 1890.296875 -20.546875 1890.835938 -20.546875 1890.835938 c
-21.15625 1891.375 -26.125 1895.40625 -26.125 1895.40625 c
-28.1875 1892.734375 l
-19.109375 1885.734375 l
-15.828125 1885.734375 l
-15.828125 1920 l
h
-1.578125 1917.515625 m
-1.578125 1915.9375 -0.859375 1915.132812 -0.859375 1915.132812 c
-0.140625 1914.328125 1.1875 1914.328125 1.1875 1914.328125 c
2.546875 1914.328125 3.3125 1915.132812 3.3125 1915.132812 c
4.078125 1915.9375 4.078125 1917.515625 4.078125 1917.515625 c
4.078125 1919.03125 3.304688 1919.859375 3.304688 1919.859375 c
2.53125 1920.6875 1.1875 1920.6875 1.1875 1920.6875 c
0 1920.6875 -0.789062 1919.945313 -0.789062 1919.945313 c
-1.578125 1919.203125 -1.578125 1917.515625 -1.578125 1917.515625 c
h
21.3125 1885.234375 m
26 1885.234375 28.742187 1887.414063 28.742187 1887.414063 c
31.484375 1889.59375 31.484375 1893.4375 31.484375 1893.4375 c
31.484375 1895.96875 29.914063 1898.054688 29.914063 1898.054688 c
28.34375 1900.140625 24.90625 1901.859375 24.90625 1901.859375 c
29.078125 1903.84375 30.835938 1906.039063 30.835938 1906.039063 c
32.59375 1908.234375 32.59375 1911.109375 32.59375 1911.109375 c
32.59375 1915.375 29.617188 1917.921875 29.617188 1917.921875 c
26.640625 1920.46875 21.453125 1920.46875 21.453125 1920.46875 c
15.96875 1920.46875 13.015625 1918.0625 13.015625 1918.0625 c
10.0625 1915.65625 10.0625 1911.25 10.0625 1911.25 c
10.0625 1905.375 17.234375 1902.09375 17.234375 1902.09375 c
14 1900.265625 12.59375 1898.140625 12.59375 1898.140625 c
11.1875 1896.015625 11.1875 1893.390625 11.1875 1893.390625 c
11.1875 1889.671875 13.945313 1887.453125 13.945313 1887.453125 c
16.703125 1885.234375 21.3125 1885.234375 21.3125 1885.234375 c
h
13.90625 1911.34375 m
13.90625 1914.15625 15.867188 1915.726563 15.867188 1915.726563 c
17.828125 1917.296875 21.359375 1917.296875 21.359375 1917.296875 c
24.859375 1917.296875 26.804688 1915.65625 26.804688 1915.65625 c
28.75 1914.015625 28.75 1911.15625 28.75 1911.15625 c
28.75 1908.890625 26.921875 1907.117188 26.921875 1907.117188 c
25.09375 1905.34375 20.546875 1903.6875 20.546875 1903.6875 c
17.046875 1905.1875 15.476563 1907 15.476563 1907 c
13.90625 1908.8125 13.90625 1911.34375 13.90625 1911.34375 c
h
21.265625 1888.40625 m
18.34375 1888.40625 16.679688 1889.8125 16.679688 1889.8125 c
15.015625 1891.21875 15.015625 1893.5625 15.015625 1893.5625 c
15.015625 1895.71875 16.398437 1897.265625 16.398437 1897.265625 c
17.78125 1898.8125 21.5 1900.359375 21.5 1900.359375 c
24.859375 1898.953125 26.25 1897.335938 26.25 1897.335938 c
27.640625 1895.71875 27.640625 1893.5625 27.640625 1893.5625 c
27.640625 1891.1875 25.945312 1889.796875 25.945312 1889.796875 c
24.25 1888.40625 21.265625 1888.40625 21.265625 1888.40625 c
h
f
Q
q
[1.041667 0 0 1.041667 4022.500192 416.666676] cm
-3861.600098 -400 4556 2580 re
W
/DeviceGray {} cs
[0.2667] sc
/DeviceGray {} CS
[0] SC
12.4375 1920 m
-10.09375 1920 l
-10.09375 1916.640625 l
-1.0625 1907.578125 l
3.0625 1903.40625 4.375 1901.625 4.375 1901.625 c
5.6875 1899.84375 6.34375 1898.15625 6.34375 1898.15625 c
7 1896.46875 7 1894.515625 7 1894.515625 c
7 1891.78125 5.335937 1890.171875 5.335937 1890.171875 c
3.671875 1888.5625 0.71875 1888.5625 0.71875 1888.5625 c
-1.421875 1888.5625 -3.328125 1889.265625 -3.328125 1889.265625 c
-5.234375 1889.96875 -7.578125 1891.828125 -7.578125 1891.828125 c
-9.640625 1889.171875 l
-4.90625 1885.234375 0.671875 1885.234375 0.671875 1885.234375 c
5.5 1885.234375 8.242188 1887.710938 8.242188 1887.710938 c
10.984375 1890.1875 10.984375 1894.359375 10.984375 1894.359375 c
10.984375 1897.609375 9.15625 1900.796875 9.15625 1900.796875 c
7.328125 1903.984375 2.3125 1908.859375 2.3125 1908.859375 c
-5.1875 1916.203125 l
-5.1875 1916.390625 l
12.4375 1916.390625 l
12.4375 1920 l
h
f
Q
q
[1.041667 0 0 1.041667 333.333341 2319.958421] cm
-320 -2227.160156 4556 2580.000122 re
W
/DeviceGray {} cs
[0.2667] sc
/DeviceGray {} CS
[0] SC
-52.453125 24 m
-74.984375 24 l
-74.984375 20.640625 l
-65.953125 11.578125 l
-61.828125 7.40625 -60.515625 5.625 -60.515625 5.625 c
-59.203125 3.84375 -58.546875 2.15625 -58.546875 2.15625 c
-57.890625 0.46875 -57.890625 -1.484375 -57.890625 -1.484375 c
-57.890625 -4.21875 -59.554687 -5.828125 -59.554687 -5.828125 c
-61.21875 -7.4375 -64.171875 -7.4375 -64.171875 -7.4375 c
-66.3125 -7.4375 -68.21875 -6.734375 -68.21875 -6.734375 c
-70.125 -6.03125 -72.46875 -4.171875 -72.46875 -4.171875 c
-74.53125 -6.828125 l
-69.796875 -10.765625 -64.21875 -10.765625 -64.21875 -10.765625 c
-59.390625 -10.765625 -56.648438 -8.289063 -56.648438 -8.289063 c
-53.90625 -5.8125 -53.90625 -1.640625 -53.90625 -1.640625 c
-53.90625 1.609375 -55.734375 4.796875 -55.734375 4.796875 c
-57.5625 7.984375 -62.578125 12.859375 -62.578125 12.859375 c
-70.078125 20.203125 l
-70.078125 20.390625 l
-52.453125 20.390625 l
-52.453125 24 l
h
-46.3125 21.515625 m
-46.3125 19.9375 -45.59375 19.132813 -45.59375 19.132813 c
-44.875 18.328125 -43.546875 18.328125 -43.546875 18.328125 c
-42.1875 18.328125 -41.421875 19.132813 -41.421875 19.132813 c
-40.65625 19.9375 -40.65625 21.515625 -40.65625 21.515625 c
-40.65625 23.03125 -41.429687 23.859375 -41.429687 23.859375 c
-42.203125 24.6875 -43.546875 24.6875 -43.546875 24.6875 c
-44.734375 24.6875 -45.523438 23.945312 -45.523438 23.945312 c
-46.3125 23.203125 -46.3125 21.515625 -46.3125 21.515625 c
h
-34.359375 9.34375 m
-34.359375 -0.75 -30.4375 -5.757812 -30.4375 -5.757812 c
-26.515625 -10.765625 -18.828125 -10.765625 -18.828125 -10.765625 c
-16.171875 -10.765625 -14.65625 -10.3125 -14.65625 -10.3125 c
-14.65625 -6.96875 l
-16.453125 -7.546875 -18.78125 -7.546875 -18.78125 -7.546875 c
-24.28125 -7.546875 -27.1875 -4.117187 -27.1875 -4.117187 c
-30.09375 -0.6875 -30.375 6.671875 -30.375 6.671875 c
-30.09375 6.671875 l
-27.515625 2.640625 -21.9375 2.640625 -21.9375 2.640625 c
-17.328125 2.640625 -14.664063 5.429688 -14.664063 5.429688 c
-12 8.21875 -12 13 -12 13 c
-12 18.34375 -14.921875 21.40625 -14.921875 21.40625 c
-17.84375 24.46875 -22.8125 24.46875 -22.8125 24.46875 c
-28.125 24.46875 -31.242187 20.46875 -31.242187 20.46875 c
-34.359375 16.46875 -34.359375 9.34375 -34.359375 9.34375 c
h
-22.859375 21.15625 m
-19.53125 21.15625 -17.6875 19.0625 -17.6875 19.0625 c
-15.84375 16.96875 -15.84375 13 -15.84375 13 c
-15.84375 9.609375 -17.554688 7.664062 -17.554688 7.664062 c
-19.265625 5.71875 -22.671875 5.71875 -22.671875 5.71875 c
-24.78125 5.71875 -26.539063 6.585937 -26.539063 6.585937 c
-28.296875 7.453125 -29.335938 8.976563 -29.335938 8.976563 c
-30.375 10.5 -30.375 12.140625 -30.375 12.140625 c
-30.375 14.546875 -29.4375 16.632813 -29.4375 16.632813 c
-28.5 18.71875 -26.78125 19.9375 -26.78125 19.9375 c
-25.0625 21.15625 -22.859375 21.15625 -22.859375 21.15625 c
h
f
Q
q
[1.041667 0 0 1.041667 333.333341 2051.000005] cm
-320 -1968.960083 4556 2580.000122 re
W
/DeviceGray {} cs
[0.2667] sc
/DeviceGray {} CS
[0] SC
-52.359375 24 m
-74.890625 24 l
-74.890625 20.640625 l
-65.859375 11.578125 l
-61.734375 7.40625 -60.421875 5.625 -60.421875 5.625 c
-59.109375 3.84375 -58.453125 2.15625 -58.453125 2.15625 c
-57.796875 0.46875 -57.796875 -1.484375 -57.796875 -1.484375 c
-57.796875 -4.21875 -59.460938 -5.828125 -59.460938 -5.828125 c
-61.125 -7.4375 -64.078125 -7.4375 -64.078125 -7.4375 c
-66.21875 -7.4375 -68.125 -6.734375 -68.125 -6.734375 c
-70.03125 -6.03125 -72.375 -4.171875 -72.375 -4.171875 c
-74.4375 -6.828125 l
-69.703125 -10.765625 -64.125 -10.765625 -64.125 -10.765625 c
-59.296875 -10.765625 -56.554687 -8.289063 -56.554687 -8.289063 c
-53.8125 -5.8125 -53.8125 -1.640625 -53.8125 -1.640625 c
-53.8125 1.609375 -55.640625 4.796875 -55.640625 4.796875 c
-57.46875 7.984375 -62.484375 12.859375 -62.484375 12.859375 c
-69.984375 20.203125 l
-69.984375 20.390625 l
-52.359375 20.390625 l
-52.359375 24 l
h
-46.21875 21.515625 m
-46.21875 19.9375 -45.5 19.132813 -45.5 19.132813 c
-44.78125 18.328125 -43.453125 18.328125 -43.453125 18.328125 c
-42.09375 18.328125 -41.328125 19.132813 -41.328125 19.132813 c
-40.5625 19.9375 -40.5625 21.515625 -40.5625 21.515625 c
-40.5625 23.03125 -41.335938 23.859375 -41.335938 23.859375 c
-42.109375 24.6875 -43.453125 24.6875 -43.453125 24.6875 c
-44.640625 24.6875 -45.429687 23.945312 -45.429687 23.945312 c
-46.21875 23.203125 -46.21875 21.515625 -46.21875 21.515625 c
h
-30.328125 24 m
-16.125 -6.6875 l
-34.8125 -6.6875 l
-34.8125 -10.265625 l
-12 -10.265625 l
-12 -7.15625 l
-26.015625 24 l
-30.328125 24 l
h
f
Q
q
[1.041667 0 0 1.041667 333.333341 1782.041717] cm
-320 -1710.760132 4556 2580.000122 re
W
/DeviceGray {} cs
[0.2667] sc
/DeviceGray {} CS
[0] SC
-52.3125 24 m
-74.84375 24 l
-74.84375 20.640625 l
-65.8125 11.578125 l
-61.6875 7.40625 -60.375 5.625 -60.375 5.625 c
-59.0625 3.84375 -58.40625 2.15625 -58.40625 2.15625 c
-57.75 0.46875 -57.75 -1.484375 -57.75 -1.484375 c
-57.75 -4.21875 -59.414062 -5.828125 -59.414062 -5.828125 c
-61.078125 -7.4375 -64.03125 -7.4375 -64.03125 -7.4375 c
-66.171875 -7.4375 -68.078125 -6.734375 -68.078125 -6.734375 c
-69.984375 -6.03125 -72.328125 -4.171875 -72.328125 -4.171875 c
-74.390625 -6.828125 l
-69.65625 -10.765625 -64.078125 -10.765625 -64.078125 -10.765625 c
-59.25 -10.765625 -56.507813 -8.289063 -56.507813 -8.289063 c
-53.765625 -5.8125 -53.765625 -1.640625 -53.765625 -1.640625 c
-53.765625 1.609375 -55.59375 4.796875 -55.59375 4.796875 c
-57.421875 7.984375 -62.4375 12.859375 -62.4375 12.859375 c
-69.9375 20.203125 l
-69.9375 20.390625 l
-52.3125 20.390625 l
-52.3125 24 l
h
-46.171875 21.515625 m
-46.171875 19.9375 -45.453125 19.132813 -45.453125 19.132813 c
-44.734375 18.328125 -43.40625 18.328125 -43.40625 18.328125 c
-42.046875 18.328125 -41.28125 19.132813 -41.28125 19.132813 c
-40.515625 19.9375 -40.515625 21.515625 -40.515625 21.515625 c
-40.515625 23.03125 -41.289063 23.859375 -41.289063 23.859375 c
-42.0625 24.6875 -43.40625 24.6875 -43.40625 24.6875 c
-44.59375 24.6875 -45.382813 23.945312 -45.382813 23.945312 c
-46.171875 23.203125 -46.171875 21.515625 -46.171875 21.515625 c
h
-23.28125 -10.765625 m
-18.59375 -10.765625 -15.851563 -8.585938 -15.851563 -8.585938 c
-13.109375 -6.40625 -13.109375 -2.5625 -13.109375 -2.5625 c
-13.109375 -0.03125 -14.679688 2.054688 -14.679688 2.054688 c
-16.25 4.140625 -19.6875 5.859375 -19.6875 5.859375 c
-15.515625 7.84375 -13.757813 10.039063 -13.757813 10.039063 c
-12 12.234375 -12 15.109375 -12 15.109375 c
-12 19.375 -14.976563 21.921875 -14.976563 21.921875 c
-17.953125 24.46875 -23.140625 24.46875 -23.140625 24.46875 c
-28.625 24.46875 -31.578125 22.0625 -31.578125 22.0625 c
-34.53125 19.65625 -34.53125 15.25 -34.53125 15.25 c
-34.53125 9.375 -27.359375 6.09375 -27.359375 6.09375 c
-30.59375 4.265625 -32 2.140625 -32 2.140625 c
-33.40625 0.015625 -33.40625 -2.609375 -33.40625 -2.609375 c
-33.40625 -6.328125 -30.648437 -8.546875 -30.648437 -8.546875 c
-27.890625 -10.765625 -23.28125 -10.765625 -23.28125 -10.765625 c
h
-30.6875 15.34375 m
-30.6875 18.15625 -28.726562 19.726562 -28.726562 19.726562 c
-26.765625 21.296875 -23.234375 21.296875 -23.234375 21.296875 c
-19.734375 21.296875 -17.789062 19.65625 -17.789062 19.65625 c
-15.84375 18.015625 -15.84375 15.15625 -15.84375 15.15625 c
-15.84375 12.890625 -17.671875 11.117188 -17.671875 11.117188 c
-19.5 9.34375 -24.046875 7.6875 -24.046875 7.6875 c
-27.546875 9.1875 -29.117188 11 -29.117188 11 c
-30.6875 12.8125 -30.6875 15.34375 -30.6875 15.34375 c
h
-23.328125 -7.59375 m
-26.25 -7.59375 -27.914063 -6.1875 -27.914063 -6.1875 c
-29.578125 -4.78125 -29.578125 -2.4375 -29.578125 -2.4375 c
-29.578125 -0.28125 -28.195312 1.265625 -28.195312 1.265625 c
-26.8125 2.8125 -23.09375 4.359375 -23.09375 4.359375 c
-19.734375 2.953125 -18.34375 1.335938 -18.34375 1.335938 c
-16.953125 -0.28125 -16.953125 -2.4375 -16.953125 -2.4375 c
-16.953125 -4.8125 -18.648437 -6.203125 -18.648437 -6.203125 c
-20.34375 -7.59375 -23.328125 -7.59375 -23.328125 -7.59375 c
h
f
Q
q
[1.041667 0 0 1.041667 333.333341 1513.083428] cm
-320 -1452.560181 4556 2580.000122 re
W
/DeviceGray {} cs
[0.2667] sc
/DeviceGray {} CS
[0] SC
-52.21875 24 m
-74.75 24 l
-74.75 20.640625 l
-65.71875 11.578125 l
-61.59375 7.40625 -60.28125 5.625 -60.28125 5.625 c
-58.96875 3.84375 -58.3125 2.15625 -58.3125 2.15625 c
-57.65625 0.46875 -57.65625 -1.484375 -57.65625 -1.484375 c
-57.65625 -4.21875 -59.320313 -5.828125 -59.320313 -5.828125 c
-60.984375 -7.4375 -63.9375 -7.4375 -63.9375 -7.4375 c
-66.078125 -7.4375 -67.984375 -6.734375 -67.984375 -6.734375 c
-69.890625 -6.03125 -72.234375 -4.171875 -72.234375 -4.171875 c
-74.296875 -6.828125 l
-69.5625 -10.765625 -63.984375 -10.765625 -63.984375 -10.765625 c
-59.15625 -10.765625 -56.414062 -8.289063 -56.414062 -8.289063 c
-53.671875 -5.8125 -53.671875 -1.640625 -53.671875 -1.640625 c
-53.671875 1.609375 -55.5 4.796875 -55.5 4.796875 c
-57.328125 7.984375 -62.34375 12.859375 -62.34375 12.859375 c
-69.84375 20.203125 l
-69.84375 20.390625 l
-52.21875 20.390625 l
-52.21875 24 l
h
-46.078125 21.515625 m
-46.078125 19.9375 -45.359375 19.132813 -45.359375 19.132813 c
-44.640625 18.328125 -43.3125 18.328125 -43.3125 18.328125 c
-41.953125 18.328125 -41.1875 19.132813 -41.1875 19.132813 c
-40.421875 19.9375 -40.421875 21.515625 -40.421875 21.515625 c
-40.421875 23.03125 -41.195313 23.859375 -41.195313 23.859375 c
-41.96875 24.6875 -43.3125 24.6875 -43.3125 24.6875 c
-44.5 24.6875 -45.289063 23.945312 -45.289063 23.945312 c
-46.078125 23.203125 -46.078125 21.515625 -46.078125 21.515625 c
h
-12 4.359375 m
-12 24.46875 -27.5625 24.46875 -27.5625 24.46875 c
-30.28125 24.46875 -31.875 24 -31.875 24 c
-31.875 20.640625 l
-30 21.25 -27.609375 21.25 -27.609375 21.25 c
-21.984375 21.25 -19.117188 17.773437 -19.117188 17.773437 c
-16.25 14.296875 -15.984375 7.09375 -15.984375 7.09375 c
-16.265625 7.09375 l
-17.5625 9.046875 -19.695312 10.0625 -19.695312 10.0625 c
-21.828125 11.078125 -24.5 11.078125 -24.5 11.078125 c
-29.046875 11.078125 -31.71875 8.359375 -31.71875 8.359375 c
-34.390625 5.640625 -34.390625 0.765625 -34.390625 0.765625 c
-34.390625 -4.578125 -31.398437 -7.671875 -31.398437 -7.671875 c
-28.40625 -10.765625 -23.53125 -10.765625 -23.53125 -10.765625 c
-20.046875 -10.765625 -17.429687 -8.96875 -17.429687 -8.96875 c
-14.8125 -7.171875 -13.40625 -3.742188 -13.40625 -3.742188 c
-12 -0.3125 -12 4.359375 -12 4.359375 c
h
-23.53125 -7.4375 m
-26.890625 -7.4375 -28.71875 -5.28125 -28.71875 -5.28125 c
-30.546875 -3.125 -30.546875 0.71875 -30.546875 0.71875 c
-30.546875 4.09375 -28.859375 6.03125 -28.859375 6.03125 c
-27.171875 7.96875 -23.71875 7.96875 -23.71875 7.96875 c
-21.59375 7.96875 -19.796875 7.101563 -19.796875 7.101563 c
-18 6.234375 -16.96875 4.734375 -16.96875 4.734375 c
-15.9375 3.234375 -15.9375 1.59375 -15.9375 1.59375 c
-15.9375 -0.875 -16.898437 -2.960938 -16.898437 -2.960938 c
-17.859375 -5.046875 -19.585937 -6.242187 -19.585937 -6.242187 c
-21.3125 -7.4375 -23.53125 -7.4375 -23.53125 -7.4375 c
h
f
Q
q
[1.041667 0 0 1.041667 333.333341 1244.083369] cm
-320 -1194.320068 4556 2580 re
W
/DeviceGray {} cs
[0.2667] sc
/DeviceGray {} CS
[0] SC
-13.0625 -2.203125 m
-13.0625 1.078125 -14.898438 3.164063 -14.898438 3.164063 c
-16.734375 5.25 -20.109375 5.953125 -20.109375 5.953125 c
-20.109375 6.140625 l
-15.984375 6.65625 -13.992188 8.765625 -13.992188 8.765625 c
-12 10.875 -12 14.296875 -12 14.296875 c
-12 19.1875 -15.398438 21.828125 -15.398438 21.828125 c
-18.796875 24.46875 -25.0625 24.46875 -25.0625 24.46875 c
-27.78125 24.46875 -30.039063 24.054688 -30.039063 24.054688 c
-32.296875 23.640625 -34.4375 22.609375 -34.4375 22.609375 c
-34.4375 18.90625 l
-32.203125 20.015625 -29.6875 20.585937 -29.6875 20.585937 c
-27.171875 21.15625 -24.921875 21.15625 -24.921875 21.15625 c
-16.03125 21.15625 -16.03125 14.203125 -16.03125 14.203125 c
-16.03125 7.96875 -25.828125 7.96875 -25.828125 7.96875 c
-29.203125 7.96875 l
-29.203125 4.609375 l
-25.78125 4.609375 l
-21.78125 4.609375 -19.4375 2.84375 -19.4375 2.84375 c
-17.09375 1.078125 -17.09375 -2.0625 -17.09375 -2.0625 c
-17.09375 -4.578125 -18.8125 -6.007812 -18.8125 -6.007812 c
-20.53125 -7.4375 -23.484375 -7.4375 -23.484375 -7.4375 c
-25.734375 -7.4375 -27.726562 -6.828125 -27.726562 -6.828125 c
-29.71875 -6.21875 -32.28125 -4.578125 -32.28125 -4.578125 c
-34.25 -7.203125 l
-32.140625 -8.859375 -29.382812 -9.8125 -29.382812 -9.8125 c
-26.625 -10.765625 -23.578125 -10.765625 -23.578125 -10.765625 c
-18.59375 -10.765625 -15.828125 -8.476563 -15.828125 -8.476563 c
-13.0625 -6.1875 -13.0625 -2.203125 -13.0625 -2.203125 c
h
f
Q
q
[1.041667 0 0 1.041667 333.333341 975.125017] cm
-320 -936.120056 4556 2579.999939 re
W
/DeviceGray {} cs
[0.2667] sc
/DeviceGray {} CS
[0] SC
-45.40625 -2.203125 m
-45.40625 1.078125 -47.242188 3.164063 -47.242188 3.164063 c
-49.078125 5.25 -52.453125 5.953125 -52.453125 5.953125 c
-52.453125 6.140625 l
-48.328125 6.65625 -46.335938 8.765625 -46.335938 8.765625 c
-44.34375 10.875 -44.34375 14.296875 -44.34375 14.296875 c
-44.34375 19.1875 -47.742188 21.828125 -47.742188 21.828125 c
-51.140625 24.46875 -57.40625 24.46875 -57.40625 24.46875 c
-60.125 24.46875 -62.382813 24.054688 -62.382813 24.054688 c
-64.640625 23.640625 -66.78125 22.609375 -66.78125 22.609375 c
-66.78125 18.90625 l
-64.546875 20.015625 -62.03125 20.585937 -62.03125 20.585937 c
-59.515625 21.15625 -57.265625 21.15625 -57.265625 21.15625 c
-48.375 21.15625 -48.375 14.203125 -48.375 14.203125 c
-48.375 7.96875 -58.171875 7.96875 -58.171875 7.96875 c
-61.546875 7.96875 l
-61.546875 4.609375 l
-58.125 4.609375 l
-54.125 4.609375 -51.78125 2.84375 -51.78125 2.84375 c
-49.4375 1.078125 -49.4375 -2.0625 -49.4375 -2.0625 c
-49.4375 -4.578125 -51.15625 -6.007812 -51.15625 -6.007812 c
-52.875 -7.4375 -55.828125 -7.4375 -55.828125 -7.4375 c
-58.078125 -7.4375 -60.070313 -6.828125 -60.070313 -6.828125 c
-62.0625 -6.21875 -64.625 -4.578125 -64.625 -4.578125 c
-66.59375 -7.203125 l
-64.484375 -8.859375 -61.726563 -9.8125 -61.726563 -9.8125 c
-58.96875 -10.765625 -55.921875 -10.765625 -55.921875 -10.765625 c
-50.9375 -10.765625 -48.171875 -8.476563 -48.171875 -8.476563 c
-45.40625 -6.1875 -45.40625 -2.203125 -45.40625 -2.203125 c
h
-37.96875 21.515625 m
-37.96875 19.9375 -37.25 19.132813 -37.25 19.132813 c
-36.53125 18.328125 -35.203125 18.328125 -35.203125 18.328125 c
-33.84375 18.328125 -33.078125 19.132813 -33.078125 19.132813 c
-32.3125 19.9375 -32.3125 21.515625 -32.3125 21.515625 c
-32.3125 23.03125 -33.085938 23.859375 -33.085938 23.859375 c
-33.859375 24.6875 -35.203125 24.6875 -35.203125 24.6875 c
-36.390625 24.6875 -37.179687 23.945312 -37.179687 23.945312 c
-37.96875 23.203125 -37.96875 21.515625 -37.96875 21.515625 c
h
-12 24 m
-15.796875 24 l
-15.796875 -0.421875 l
-15.796875 -3.46875 -15.609375 -6.1875 -15.609375 -6.1875 c
-16.109375 -5.703125 -16.71875 -5.164062 -16.71875 -5.164062 c
-17.328125 -4.625 -22.296875 -0.59375 -22.296875 -0.59375 c
-24.359375 -3.265625 l
-15.28125 -10.265625 l
-12 -10.265625 l
-12 24 l
h
f
Q
q
[1.041667 0 0 1.041667 333.333341 706.166696] cm
-320 -677.920044 4556 2579.999878 re
W
/DeviceGray {} cs
[0.2667] sc
/DeviceGray {} CS
[0] SC
-53.515625 -2.203125 m
-53.515625 1.078125 -55.351562 3.164063 -55.351562 3.164063 c
-57.1875 5.25 -60.5625 5.953125 -60.5625 5.953125 c
-60.5625 6.140625 l
-56.4375 6.65625 -54.445313 8.765625 -54.445313 8.765625 c
-52.453125 10.875 -52.453125 14.296875 -52.453125 14.296875 c
-52.453125 19.1875 -55.851562 21.828125 -55.851562 21.828125 c
-59.25 24.46875 -65.515625 24.46875 -65.515625 24.46875 c
-68.234375 24.46875 -70.492188 24.054688 -70.492188 24.054688 c
-72.75 23.640625 -74.890625 22.609375 -74.890625 22.609375 c
-74.890625 18.90625 l
-72.65625 20.015625 -70.140625 20.585937 -70.140625 20.585937 c
-67.625 21.15625 -65.375 21.15625 -65.375 21.15625 c
-56.484375 21.15625 -56.484375 14.203125 -56.484375 14.203125 c
-56.484375 7.96875 -66.28125 7.96875 -66.28125 7.96875 c
-69.65625 7.96875 l
-69.65625 4.609375 l
-66.234375 4.609375 l
-62.234375 4.609375 -59.890625 2.84375 -59.890625 2.84375 c
-57.546875 1.078125 -57.546875 -2.0625 -57.546875 -2.0625 c
-57.546875 -4.578125 -59.265625 -6.007812 -59.265625 -6.007812 c
-60.984375 -7.4375 -63.9375 -7.4375 -63.9375 -7.4375 c
-66.1875 -7.4375 -68.179687 -6.828125 -68.179687 -6.828125 c
-70.171875 -6.21875 -72.734375 -4.578125 -72.734375 -4.578125 c
-74.703125 -7.203125 l
-72.59375 -8.859375 -69.835937 -9.8125 -69.835937 -9.8125 c
-67.078125 -10.765625 -64.03125 -10.765625 -64.03125 -10.765625 c
-59.046875 -10.765625 -56.28125 -8.476563 -56.28125 -8.476563 c
-53.515625 -6.1875 -53.515625 -2.203125 -53.515625 -2.203125 c
h
-46.078125 21.515625 m
-46.078125 19.9375 -45.359375 19.132813 -45.359375 19.132813 c
-44.640625 18.328125 -43.3125 18.328125 -43.3125 18.328125 c
-41.953125 18.328125 -41.1875 19.132813 -41.1875 19.132813 c
-40.421875 19.9375 -40.421875 21.515625 -40.421875 21.515625 c
-40.421875 23.03125 -41.195313 23.859375 -41.195313 23.859375 c
-41.96875 24.6875 -43.3125 24.6875 -43.3125 24.6875 c
-44.5 24.6875 -45.289063 23.945312 -45.289063 23.945312 c
-46.078125 23.203125 -46.078125 21.515625 -46.078125 21.515625 c
h
-12 24 m
-34.53125 24 l
-34.53125 20.640625 l
-25.5 11.578125 l
-21.375 7.40625 -20.0625 5.625 -20.0625 5.625 c
-18.75 3.84375 -18.09375 2.15625 -18.09375 2.15625 c
-17.4375 0.46875 -17.4375 -1.484375 -17.4375 -1.484375 c
-17.4375 -4.21875 -19.101563 -5.828125 -19.101563 -5.828125 c
-20.765625 -7.4375 -23.71875 -7.4375 -23.71875 -7.4375 c
-25.859375 -7.4375 -27.765625 -6.734375 -27.765625 -6.734375 c
-29.671875 -6.03125 -32.015625 -4.171875 -32.015625 -4.171875 c
-34.078125 -6.828125 l
-29.34375 -10.765625 -23.765625 -10.765625 -23.765625 -10.765625 c
-18.9375 -10.765625 -16.195312 -8.289063 -16.195312 -8.289063 c
-13.453125 -5.8125 -13.453125 -1.640625 -13.453125 -1.640625 c
-13.453125 1.609375 -15.28125 4.796875 -15.28125 4.796875 c
-17.109375 7.984375 -22.125 12.859375 -22.125 12.859375 c
-29.625 20.203125 l
-29.625 20.390625 l
-12 20.390625 l
-12 24 l
h
f
Q
q
[1.041667 0 0 1.041667 333.333341 437.208342] cm
-320 -419.720032 4556 2579.999817 re
W
/DeviceGray {} cs
[0.2667] sc
/DeviceGray {} CS
[0] SC
-53.28125 -2.203125 m
-53.28125 1.078125 -55.117187 3.164063 -55.117187 3.164063 c
-56.953125 5.25 -60.328125 5.953125 -60.328125 5.953125 c
-60.328125 6.140625 l
-56.203125 6.65625 -54.210938 8.765625 -54.210938 8.765625 c
-52.21875 10.875 -52.21875 14.296875 -52.21875 14.296875 c
-52.21875 19.1875 -55.617187 21.828125 -55.617187 21.828125 c
-59.015625 24.46875 -65.28125 24.46875 -65.28125 24.46875 c
-68 24.46875 -70.257813 24.054688 -70.257813 24.054688 c
-72.515625 23.640625 -74.65625 22.609375 -74.65625 22.609375 c
-74.65625 18.90625 l
-72.421875 20.015625 -69.90625 20.585937 -69.90625 20.585937 c
-67.390625 21.15625 -65.140625 21.15625 -65.140625 21.15625 c
-56.25 21.15625 -56.25 14.203125 -56.25 14.203125 c
-56.25 7.96875 -66.046875 7.96875 -66.046875 7.96875 c
-69.421875 7.96875 l
-69.421875 4.609375 l
-66 4.609375 l
-62 4.609375 -59.65625 2.84375 -59.65625 2.84375 c
-57.3125 1.078125 -57.3125 -2.0625 -57.3125 -2.0625 c
-57.3125 -4.578125 -59.03125 -6.007812 -59.03125 -6.007812 c
-60.75 -7.4375 -63.703125 -7.4375 -63.703125 -7.4375 c
-65.953125 -7.4375 -67.945313 -6.828125 -67.945313 -6.828125 c
-69.9375 -6.21875 -72.5 -4.578125 -72.5 -4.578125 c
-74.46875 -7.203125 l
-72.359375 -8.859375 -69.601563 -9.8125 -69.601563 -9.8125 c
-66.84375 -10.765625 -63.796875 -10.765625 -63.796875 -10.765625 c
-58.8125 -10.765625 -56.046875 -8.476563 -56.046875 -8.476563 c
-53.28125 -6.1875 -53.28125 -2.203125 -53.28125 -2.203125 c
h
-45.84375 21.515625 m
-45.84375 19.9375 -45.125 19.132813 -45.125 19.132813 c
-44.40625 18.328125 -43.078125 18.328125 -43.078125 18.328125 c
-41.71875 18.328125 -40.953125 19.132813 -40.953125 19.132813 c
-40.1875 19.9375 -40.1875 21.515625 -40.1875 21.515625 c
-40.1875 23.03125 -40.960938 23.859375 -40.960938 23.859375 c
-41.734375 24.6875 -43.078125 24.6875 -43.078125 24.6875 c
-44.265625 24.6875 -45.054687 23.945312 -45.054687 23.945312 c
-45.84375 23.203125 -45.84375 21.515625 -45.84375 21.515625 c
h
-13.0625 -2.203125 m
-13.0625 1.078125 -14.898438 3.164063 -14.898438 3.164063 c
-16.734375 5.25 -20.109375 5.953125 -20.109375 5.953125 c
-20.109375 6.140625 l
-15.984375 6.65625 -13.992188 8.765625 -13.992188 8.765625 c
-12 10.875 -12 14.296875 -12 14.296875 c
-12 19.1875 -15.398438 21.828125 -15.398438 21.828125 c
-18.796875 24.46875 -25.0625 24.46875 -25.0625 24.46875 c
-27.78125 24.46875 -30.039063 24.054688 -30.039063 24.054688 c
-32.296875 23.640625 -34.4375 22.609375 -34.4375 22.609375 c
-34.4375 18.90625 l
-32.203125 20.015625 -29.6875 20.585937 -29.6875 20.585937 c
-27.171875 21.15625 -24.921875 21.15625 -24.921875 21.15625 c
-16.03125 21.15625 -16.03125 14.203125 -16.03125 14.203125 c
-16.03125 7.96875 -25.828125 7.96875 -25.828125 7.96875 c
-29.203125 7.96875 l
-29.203125 4.609375 l
-25.78125 4.609375 l
-21.78125 4.609375 -19.4375 2.84375 -19.4375 2.84375 c
-17.09375 1.078125 -17.09375 -2.0625 -17.09375 -2.0625 c
-17.09375 -4.578125 -18.8125 -6.007812 -18.8125 -6.007812 c
-20.53125 -7.4375 -23.484375 -7.4375 -23.484375 -7.4375 c
-25.734375 -7.4375 -27.726562 -6.828125 -27.726562 -6.828125 c
-29.71875 -6.21875 -32.28125 -4.578125 -32.28125 -4.578125 c
-34.25 -7.203125 l
-32.140625 -8.859375 -29.382812 -9.8125 -29.382812 -9.8125 c
-26.625 -10.765625 -23.578125 -10.765625 -23.578125 -10.765625 c
-18.59375 -10.765625 -15.828125 -8.476563 -15.828125 -8.476563 c
-13.0625 -6.1875 -13.0625 -2.203125 -13.0625 -2.203125 c
h
f
Q
q
[1.458333 0 0 1.458333 0 0] cm
0 -0.000023 3254.28577 1842.857023 re
W
/DeviceGray {} cs
[0.2667] sc
/DeviceGray {} CS
[0] SC
1531.734375 142.84375 m
1527.75 142.84375 l
1527.75 112.109375 l
1516.890625 112.109375 l
1516.890625 108.578125 l
1542.578125 108.578125 l
1542.578125 112.109375 l
1531.734375 112.109375 l
1531.734375 142.84375 l
h
1564.734375 142.84375 m
1564.734375 126.21875 l
1564.734375 123.078125 1563.304688 121.53125 1563.304688 121.53125 c
1561.875 119.984375 1558.828125 119.984375 1558.828125 119.984375 c
1554.78125 119.984375 1552.914063 122.1875 1552.914063 122.1875 c
1551.046875 124.390625 1551.046875 129.40625 1551.046875 129.40625 c
1551.046875 142.84375 l
1547.15625 142.84375 l
1547.15625 106.375 l
1551.046875 106.375 l
1551.046875 117.40625 l
1551.046875 119.40625 1550.859375 120.71875 1550.859375 120.71875 c
1551.09375 120.71875 l
1552.25 118.859375 1554.367188 117.796875 1554.367188 117.796875 c
1556.484375 116.734375 1559.203125 116.734375 1559.203125 116.734375 c
1563.921875 116.734375 1566.273437 118.96875 1566.273437 118.96875 c
1568.625 121.203125 1568.625 126.078125 1568.625 126.078125 c
1568.625 142.84375 l
1564.734375 142.84375 l
h
1588.328125 116.6875 m
1590.046875 116.6875 1591.40625 116.96875 1591.40625 116.96875 c
1590.859375 120.578125 l
1589.265625 120.21875 1588.046875 120.21875 1588.046875 120.21875 c
1584.9375 120.21875 1582.71875 122.75 1582.71875 122.75 c
1580.5 125.28125 1580.5 129.0625 1580.5 129.0625 c
1580.5 142.84375 l
1576.609375 142.84375 l
1576.609375 117.15625 l
1579.828125 117.15625 l
1580.265625 121.90625 l
1580.453125 121.90625 l
1581.890625 119.40625 1583.90625 118.046875 1583.90625 118.046875 c
1585.921875 116.6875 1588.328125 116.6875 1588.328125 116.6875 c
h
1607.0625 143.3125 m
1601.359375 143.3125 1598.070312 139.84375 1598.070312 139.84375 c
1594.78125 136.375 1594.78125 130.203125 1594.78125 130.203125 c
1594.78125 124 1597.835938 120.34375 1597.835938 120.34375 c
1600.890625 116.6875 1606.046875 116.6875 1606.046875 116.6875 c
1610.875 116.6875 1613.6875 119.859375 1613.6875 119.859375 c
1616.5 123.03125 1616.5 128.234375 1616.5 128.234375 c
1616.5 130.703125 l
1598.8125 130.703125 l
1598.921875 135.21875 1601.09375 137.5625 1601.09375 137.5625 c
1603.265625 139.90625 1607.203125 139.90625 1607.203125 139.90625 c
1611.34375 139.90625 1615.40625 138.171875 1615.40625 138.171875 c
1615.40625 141.640625 l
1613.34375 142.53125 1611.5 142.921875 1611.5 142.921875 c
1609.65625 143.3125 1607.0625 143.3125 1607.0625 143.3125 c
h
1606 119.9375 m
1602.90625 119.9375 1601.070312 121.953125 1601.070312 121.953125 c
1599.234375 123.96875 1598.90625 127.53125 1598.90625 127.53125 c
1612.328125 127.53125 l
1612.328125 123.859375 1610.6875 121.898437 1610.6875 121.898437 c
1609.046875 119.9375 1606 119.9375 1606 119.9375 c
h
1639.71875 135.828125 m
1639.71875 139.421875 1637.046875 141.367188 1637.046875 141.367188 c
1634.375 143.3125 1629.546875 143.3125 1629.546875 143.3125 c
1624.4375 143.3125 1621.578125 141.6875 1621.578125 141.6875 c
1621.578125 138.078125 l
1623.421875 139.015625 1625.546875 139.554688 1625.546875 139.554688 c
1627.671875 140.09375 1629.640625 140.09375 1629.640625 140.09375 c
1632.6875 140.09375 1634.328125 139.125 1634.328125 139.125 c
1635.96875 138.15625 1635.96875 136.15625 1635.96875 136.15625 c
1635.96875 134.65625 1634.664062 133.59375 1634.664062 133.59375 c
1633.359375 132.53125 1629.59375 131.078125 1629.59375 131.078125 c
1626 129.734375 1624.492188 128.742188 1624.492188 128.742188 c
1622.984375 127.75 1622.242188 126.484375 1622.242188 126.484375 c
1621.5 125.21875 1621.5 123.453125 1621.5 123.453125 c
1621.5 120.3125 1624.054688 118.5 1624.054688 118.5 c
1626.609375 116.6875 1631.0625 116.6875 1631.0625 116.6875 c
1635.21875 116.6875 1639.171875 118.375 1639.171875 118.375 c
1637.796875 121.53125 l
1633.921875 119.9375 1630.78125 119.9375 1630.78125 119.9375 c
1628.015625 119.9375 1626.609375 120.804688 1626.609375 120.804688 c
1625.203125 121.671875 1625.203125 123.203125 1625.203125 123.203125 c
1625.203125 124.234375 1625.734375 124.960938 1625.734375 124.960938 c
1626.265625 125.6875 1627.4375 126.34375 1627.4375 126.34375 c
1628.609375 127 1631.9375 128.234375 1631.9375 128.234375 c
1636.5 129.90625 1638.109375 131.59375 1638.109375 131.59375 c
1639.71875 133.28125 1639.71875 135.828125 1639.71875 135.828125 c
h
1663.609375 142.84375 m
1663.609375 126.21875 l
1663.609375 123.078125 1662.179688 121.53125 1662.179688 121.53125 c
1660.75 119.984375 1657.703125 119.984375 1657.703125 119.984375 c
1653.65625 119.984375 1651.789063 122.1875 1651.789063 122.1875 c
1649.921875 124.390625 1649.921875 129.40625 1649.921875 129.40625 c
1649.921875 142.84375 l
1646.03125 142.84375 l
1646.03125 106.375 l
1649.921875 106.375 l
1649.921875 117.40625 l
1649.921875 119.40625 1649.734375 120.71875 1649.734375 120.71875 c
1649.96875 120.71875 l
1651.125 118.859375 1653.242188 117.796875 1653.242188 117.796875 c
1655.359375 116.734375 1658.078125 116.734375 1658.078125 116.734375 c
1662.796875 116.734375 1665.148437 118.96875 1665.148437 118.96875 c
1667.5 121.203125 1667.5 126.078125 1667.5 126.078125 c
1667.5 142.84375 l
1663.609375 142.84375 l
h
1697.671875 129.96875 m
1697.671875 136.25 1694.507813 139.78125 1694.507813 139.78125 c
1691.34375 143.3125 1685.765625 143.3125 1685.765625 143.3125 c
1682.328125 143.3125 1679.65625 141.695313 1679.65625 141.695313 c
1676.984375 140.078125 1675.53125 137.054688 1675.53125 137.054688 c
1674.078125 134.03125 1674.078125 129.96875 1674.078125 129.96875 c
1674.078125 123.6875 1677.21875 120.1875 1677.21875 120.1875 c
1680.359375 116.6875 1685.9375 116.6875 1685.9375 116.6875 c
1691.328125 116.6875 1694.5 120.273437 1694.5 120.273437 c
1697.671875 123.859375 1697.671875 129.96875 1697.671875 129.96875 c
h
1678.109375 129.96875 m
1678.109375 134.890625 1680.078125 137.46875 1680.078125 137.46875 c
1682.046875 140.046875 1685.859375 140.046875 1685.859375 140.046875 c
1689.6875 140.046875 1691.664062 137.484375 1691.664062 137.484375 c
1693.640625 134.921875 1693.640625 129.96875 1693.640625 129.96875 c
1693.640625 125.078125 1691.664062 122.53125 1691.664062 122.53125 c
1689.6875 119.984375 1685.8125 119.984375 1685.8125 119.984375 c
1682 119.984375 1680.054688 122.492188 1680.054688 122.492188 c
1678.109375 125 1678.109375 129.96875 1678.109375 129.96875 c
h
1708.375 142.84375 m
1704.484375 142.84375 l
1704.484375 106.375 l
1708.375 106.375 l
1708.375 142.84375 l
h
1734.109375 139.390625 m
1733.90625 139.390625 l
1731.203125 143.3125 1725.84375 143.3125 1725.84375 143.3125 c
1720.796875 143.3125 1718 139.867188 1718 139.867188 c
1715.203125 136.421875 1715.203125 130.0625 1715.203125 130.0625 c
1715.203125 123.71875 1718.015625 120.203125 1718.015625 120.203125 c
1720.828125 116.6875 1725.84375 116.6875 1725.84375 116.6875 c
1731.0625 116.6875 1733.859375 120.484375 1733.859375 120.484375 c
1734.15625 120.484375 l
1734 118.625 l
1733.90625 116.828125 l
1733.90625 106.375 l
1737.796875 106.375 l
1737.796875 142.84375 l
1734.625 142.84375 l
1734.109375 139.390625 l
h
1726.328125 140.046875 m
1730.3125 140.046875 1732.109375 137.882813 1732.109375 137.882813 c
1733.90625 135.71875 1733.90625 130.890625 1733.90625 130.890625 c
1733.90625 130.0625 l
1733.90625 124.609375 1732.085938 122.273437 1732.085938 122.273437 c
1730.265625 119.9375 1726.28125 119.9375 1726.28125 119.9375 c
1722.859375 119.9375 1721.046875 122.601563 1721.046875 122.601563 c
1719.234375 125.265625 1719.234375 130.109375 1719.234375 130.109375 c
1719.234375 135.03125 1721.039063 137.539062 1721.039063 137.539062 c
1722.84375 140.046875 1726.328125 140.046875 1726.328125 140.046875 c
h
f
Q
q
[1.25 0 0 1.25 0 0] cm
0 -0.000027 3796.666893 2149.999952 re
W
/DeviceGray {} cs
[0.2667] sc
/DeviceGray {} CS
[0] SC
1815.6875 2060.65625 m
1811.421875 2049.75 l
1797.6875 2049.75 l
1793.46875 2060.65625 l
1789.4375 2060.65625 l
1802.984375 2026.25 l
1806.34375 2026.25 l
1819.8125 2060.65625 l
1815.6875 2060.65625 l
h
1810.1875 2046.171875 m
1806.203125 2035.546875 l
1805.421875 2033.53125 1804.609375 2030.609375 1804.609375 2030.609375 c
1804.09375 2032.859375 1803.125 2035.546875 1803.125 2035.546875 c
1799.09375 2046.171875 l
1810.1875 2046.171875 l
h
1850.546875 2060.65625 m
1846.5625 2060.65625 l
1846.5625 2044.53125 l
1828.515625 2044.53125 l
1828.515625 2060.65625 l
1824.53125 2060.65625 l
1824.53125 2026.390625 l
1828.515625 2026.390625 l
1828.515625 2040.96875 l
1846.5625 2040.96875 l
1846.5625 2026.390625 l
1850.546875 2026.390625 l
1850.546875 2060.65625 l
h
f
Q
q
[0 -1.25 1.25 0 -1213.750024 1557.083371] cm
-904.333143 971.000017 2149.999925 3796.667096 re
W
/DeviceGray {} cs
[0.2667] sc
/DeviceGray {} CS
[0] SC
48.53125 1105.578125 m
49.5625 1105.578125 50.523438 1105.429688 50.523438 1105.429688 c
51.484375 1105.28125 52.046875 1105.109375 52.046875 1105.109375 c
52.046875 1108.09375 l
51.421875 1108.40625 50.1875 1108.601563 50.1875 1108.601563 c
48.953125 1108.796875 47.96875 1108.796875 47.96875 1108.796875 c
40.515625 1108.796875 40.515625 1100.9375 40.515625 1100.9375 c
40.515625 1085.65625 l
36.84375 1085.65625 l
36.84375 1083.78125 l
40.515625 1082.171875 l
42.15625 1076.6875 l
44.40625 1076.6875 l
44.40625 1082.640625 l
51.859375 1082.640625 l
51.859375 1085.65625 l
44.40625 1085.65625 l
44.40625 1100.78125 l
44.40625 1103.09375 45.507813 1104.335938 45.507813 1104.335938 c
46.609375 1105.578125 48.53125 1105.578125 48.53125 1105.578125 c
h
74.75 1108.328125 m
74.75 1091.703125 l
74.75 1088.5625 73.320312 1087.015625 73.320312 1087.015625 c
71.890625 1085.46875 68.84375 1085.46875 68.84375 1085.46875 c
64.796875 1085.46875 62.929687 1087.671875 62.929687 1087.671875 c
61.0625 1089.875 61.0625 1094.890625 61.0625 1094.890625 c
61.0625 1108.328125 l
57.171875 1108.328125 l
57.171875 1071.859375 l
61.0625 1071.859375 l
61.0625 1082.890625 l
61.0625 1084.890625 60.875 1086.203125 60.875 1086.203125 c
61.109375 1086.203125 l
62.265625 1084.34375 64.382812 1083.28125 64.382812 1083.28125 c
66.5 1082.21875 69.21875 1082.21875 69.21875 1082.21875 c
73.9375 1082.21875 76.289063 1084.453125 76.289063 1084.453125 c
78.640625 1086.6875 78.640625 1091.5625 78.640625 1091.5625 c
78.640625 1108.328125 l
74.75 1108.328125 l
h
97.5 1108.796875 m
91.796875 1108.796875 88.507813 1105.328125 88.507813 1105.328125 c
85.21875 1101.859375 85.21875 1095.6875 85.21875 1095.6875 c
85.21875 1089.484375 88.273437 1085.828125 88.273437 1085.828125 c
91.328125 1082.171875 96.484375 1082.171875 96.484375 1082.171875 c
101.3125 1082.171875 104.125 1085.34375 104.125 1085.34375 c
106.9375 1088.515625 106.9375 1093.71875 106.9375 1093.71875 c
106.9375 1096.1875 l
89.25 1096.1875 l
89.359375 1100.703125 91.53125 1103.046875 91.53125 1103.046875 c
93.703125 1105.390625 97.640625 1105.390625 97.640625 1105.390625 c
101.78125 1105.390625 105.84375 1103.65625 105.84375 1103.65625 c
105.84375 1107.125 l
103.78125 1108.015625 101.9375 1108.40625 101.9375 1108.40625 c
100.09375 1108.796875 97.5 1108.796875 97.5 1108.796875 c
h
96.4375 1085.421875 m
93.34375 1085.421875 91.507813 1087.4375 91.507813 1087.4375 c
89.671875 1089.453125 89.34375 1093.015625 89.34375 1093.015625 c
102.765625 1093.015625 l
102.765625 1089.34375 101.125 1087.382812 101.125 1087.382812 c
99.484375 1085.421875 96.4375 1085.421875 96.4375 1085.421875 c
h
121.859375 1105.578125 m
122.890625 1105.578125 123.851563 1105.429688 123.851563 1105.429688 c
124.8125 1105.28125 125.375 1105.109375 125.375 1105.109375 c
125.375 1108.09375 l
124.75 1108.40625 123.515625 1108.601563 123.515625 1108.601563 c
122.28125 1108.796875 121.296875 1108.796875 121.296875 1108.796875 c
113.84375 1108.796875 113.84375 1100.9375 113.84375 1100.9375 c
113.84375 1085.65625 l
110.171875 1085.65625 l
110.171875 1083.78125 l
113.84375 1082.171875 l
115.484375 1076.6875 l
117.734375 1076.6875 l
117.734375 1082.640625 l
125.1875 1082.640625 l
125.1875 1085.65625 l
117.734375 1085.65625 l
117.734375 1100.78125 l
117.734375 1103.09375 118.835937 1104.335938 118.835937 1104.335938 c
119.9375 1105.578125 121.859375 1105.578125 121.859375 1105.578125 c
h
146.3125 1108.328125 m
145.546875 1104.671875 l
145.359375 1104.671875 l
143.4375 1107.078125 141.523438 1107.9375 141.523438 1107.9375 c
139.609375 1108.796875 136.75 1108.796875 136.75 1108.796875 c
132.9375 1108.796875 130.765625 1106.828125 130.765625 1106.828125 c
128.59375 1104.859375 128.59375 1101.21875 128.59375 1101.21875 c
128.59375 1093.4375 141.046875 1093.0625 141.046875 1093.0625 c
145.40625 1092.921875 l
145.40625 1091.328125 l
145.40625 1088.3125 144.101562 1086.867188 144.101562 1086.867188 c
142.796875 1085.421875 139.9375 1085.421875 139.9375 1085.421875 c
136.734375 1085.421875 132.671875 1087.390625 132.671875 1087.390625 c
131.484375 1084.421875 l
133.375 1083.390625 135.640625 1082.804688 135.640625 1082.804688 c
137.90625 1082.21875 140.171875 1082.21875 140.171875 1082.21875 c
144.765625 1082.21875 146.984375 1084.257813 146.984375 1084.257813 c
149.203125 1086.296875 149.203125 1090.796875 149.203125 1090.796875 c
149.203125 1108.328125 l
146.3125 1108.328125 l
h
137.53125 1105.578125 m
141.15625 1105.578125 143.234375 1103.585938 143.234375 1103.585938 c
145.3125 1101.59375 145.3125 1098.015625 145.3125 1098.015625 c
145.3125 1095.6875 l
141.421875 1095.859375 l
136.78125 1096.015625 134.726562 1097.296875 134.726562 1097.296875 c
132.671875 1098.578125 132.671875 1101.265625 132.671875 1101.265625 c
132.671875 1103.375 133.953125 1104.476563 133.953125 1104.476563 c
135.234375 1105.578125 137.53125 1105.578125 137.53125 1105.578125 c
h
173.78125 1101.3125 m
173.78125 1104.90625 171.109375 1106.851563 171.109375 1106.851563 c
168.4375 1108.796875 163.609375 1108.796875 163.609375 1108.796875 c
158.5 1108.796875 155.640625 1107.171875 155.640625 1107.171875 c
155.640625 1103.5625 l
157.484375 1104.5 159.609375 1105.039063 159.609375 1105.039063 c
161.734375 1105.578125 163.703125 1105.578125 163.703125 1105.578125 c
166.75 1105.578125 168.390625 1104.609375 168.390625 1104.609375 c
170.03125 1103.640625 170.03125 1101.640625 170.03125 1101.640625 c
170.03125 1100.140625 168.726562 1099.078125 168.726562 1099.078125 c
167.421875 1098.015625 163.65625 1096.5625 163.65625 1096.5625 c
160.0625 1095.21875 158.554688 1094.226563 158.554688 1094.226563 c
157.046875 1093.234375 156.304688 1091.96875 156.304688 1091.96875 c
155.5625 1090.703125 155.5625 1088.9375 155.5625 1088.9375 c
155.5625 1085.796875 158.117188 1083.984375 158.117188 1083.984375 c
160.671875 1082.171875 165.125 1082.171875 165.125 1082.171875 c
169.28125 1082.171875 173.234375 1083.859375 173.234375 1083.859375 c
171.859375 1087.015625 l
167.984375 1085.421875 164.84375 1085.421875 164.84375 1085.421875 c
162.078125 1085.421875 160.671875 1086.289063 160.671875 1086.289063 c
159.265625 1087.15625 159.265625 1088.6875 159.265625 1088.6875 c
159.265625 1089.71875 159.796875 1090.445313 159.796875 1090.445313 c
160.328125 1091.171875 161.5 1091.828125 161.5 1091.828125 c
162.671875 1092.484375 166 1093.71875 166 1093.71875 c
170.5625 1095.390625 172.171875 1097.078125 172.171875 1097.078125 c
173.78125 1098.765625 173.78125 1101.3125 173.78125 1101.3125 c
h
188.40625 1105.578125 m
189.4375 1105.578125 190.398438 1105.429688 190.398438 1105.429688 c
191.359375 1105.28125 191.921875 1105.109375 191.921875 1105.109375 c
191.921875 1108.09375 l
191.296875 1108.40625 190.0625 1108.601563 190.0625 1108.601563 c
188.828125 1108.796875 187.84375 1108.796875 187.84375 1108.796875 c
180.390625 1108.796875 180.390625 1100.9375 180.390625 1100.9375 c
180.390625 1085.65625 l
176.71875 1085.65625 l
176.71875 1083.78125 l
180.390625 1082.171875 l
182.03125 1076.6875 l
184.28125 1076.6875 l
184.28125 1082.640625 l
191.734375 1082.640625 l
191.734375 1085.65625 l
184.28125 1085.65625 l
184.28125 1100.78125 l
184.28125 1103.09375 185.382813 1104.335938 185.382813 1104.335938 c
186.484375 1105.578125 188.40625 1105.578125 188.40625 1105.578125 c
h
212.84375 1108.328125 m
212.078125 1104.671875 l
211.890625 1104.671875 l
209.96875 1107.078125 208.054688 1107.9375 208.054688 1107.9375 c
206.140625 1108.796875 203.28125 1108.796875 203.28125 1108.796875 c
199.46875 1108.796875 197.296875 1106.828125 197.296875 1106.828125 c
195.125 1104.859375 195.125 1101.21875 195.125 1101.21875 c
195.125 1093.4375 207.578125 1093.0625 207.578125 1093.0625 c
211.9375 1092.921875 l
211.9375 1091.328125 l
211.9375 1088.3125 210.632813 1086.867188 210.632813 1086.867188 c
209.328125 1085.421875 206.46875 1085.421875 206.46875 1085.421875 c
203.265625 1085.421875 199.203125 1087.390625 199.203125 1087.390625 c
198.015625 1084.421875 l
199.90625 1083.390625 202.171875 1082.804688 202.171875 1082.804688 c
204.4375 1082.21875 206.703125 1082.21875 206.703125 1082.21875 c
211.296875 1082.21875 213.515625 1084.257813 213.515625 1084.257813 c
215.734375 1086.296875 215.734375 1090.796875 215.734375 1090.796875 c
215.734375 1108.328125 l
212.84375 1108.328125 l
h
204.0625 1105.578125 m
207.6875 1105.578125 209.765625 1103.585938 209.765625 1103.585938 c
211.84375 1101.59375 211.84375 1098.015625 211.84375 1098.015625 c
211.84375 1095.6875 l
207.953125 1095.859375 l
203.3125 1096.015625 201.257813 1097.296875 201.257813 1097.296875 c
199.203125 1098.578125 199.203125 1101.265625 199.203125 1101.265625 c
199.203125 1103.375 200.484375 1104.476563 200.484375 1104.476563 c
201.765625 1105.578125 204.0625 1105.578125 204.0625 1105.578125 c
h
235.46875 1082.171875 m
237.1875 1082.171875 238.546875 1082.453125 238.546875 1082.453125 c
238 1086.0625 l
236.40625 1085.703125 235.1875 1085.703125 235.1875 1085.703125 c
232.078125 1085.703125 229.859375 1088.234375 229.859375 1088.234375 c
227.640625 1090.765625 227.640625 1094.546875 227.640625 1094.546875 c
227.640625 1108.328125 l
223.75 1108.328125 l
223.75 1082.640625 l
226.96875 1082.640625 l
227.40625 1087.390625 l
227.59375 1087.390625 l
229.03125 1084.890625 231.046875 1083.53125 231.046875 1083.53125 c
233.0625 1082.171875 235.46875 1082.171875 235.46875 1082.171875 c
h
f
Q
q
[4.166667 0 0 4.166667 4295.833429 416.666676] cm
0.000016 0.000003 95.999998 28.999994 re
W
/DeviceGray {} cs
[1] sc
/DeviceGray {} CS
[0] SC
0 0 96 29 re
f
Q
q
[4.166667 0 0 4.166667 4295.833429 477.083344] cm
0.000016 -14.499997 95.999998 28.999994 re
W
/DeviceRGB {} CS
[0.1216 0.4667 0.7059] SC
/DeviceGray {} cs
[0] sc
0 J
0 j
2 w
4 M
5 0 m
35 0 l
S
Q
q
[4.166667 0 0 4.166667 4379.166765 477.083344] cm
-19.999984 -14.499997 95.999998 28.999994 re
W
/DeviceRGB {} cs
[0.1216 0.4667 0.7059] sc
/DeviceGray {} CS
[0] SC
3 0 m
3 1.656854 1.656854 3 0 3 c
-1.656854 3 -3 1.656854 -3 0 c
-3 -1.656854 -1.656854 -3 0 -3 c
0 -3 l
1.656854 -3 3 -1.656854 3 0 c
h
f
Q
q
[1.041667 0 0 1.041667 4295.833429 477.083344] cm
0.000064 -57.999989 383.999997 115.999977 re
W
/DeviceGray {} cs
[0.2667] sc
/DeviceGray {} CS
[0] SC
172.421875 15.96875 m
173.453125 15.96875 174.414062 15.820313 174.414062 15.820313 c
175.375 15.671875 175.9375 15.5 175.9375 15.5 c
175.9375 18.484375 l
175.3125 18.796875 174.078125 18.992187 174.078125 18.992187 c
172.84375 19.1875 171.859375 19.1875 171.859375 19.1875 c
164.40625 19.1875 164.40625 11.328125 164.40625 11.328125 c
164.40625 -3.953125 l
160.734375 -3.953125 l
160.734375 -5.828125 l
164.40625 -7.4375 l
166.046875 -12.921875 l
168.296875 -12.921875 l
168.296875 -6.96875 l
175.75 -6.96875 l
175.75 -3.953125 l
168.296875 -3.953125 l
168.296875 11.171875 l
168.296875 13.484375 169.398438 14.726563 169.398438 14.726563 c
170.5 15.96875 172.421875 15.96875 172.421875 15.96875 c
h
198.640625 18.71875 m
198.640625 2.09375 l
198.640625 -1.046875 197.210938 -2.59375 197.210938 -2.59375 c
195.78125 -4.140625 192.734375 -4.140625 192.734375 -4.140625 c
188.6875 -4.140625 186.820313 -1.9375 186.820313 -1.9375 c
184.953125 0.265625 184.953125 5.28125 184.953125 5.28125 c
184.953125 18.71875 l
181.0625 18.71875 l
181.0625 -17.75 l
184.953125 -17.75 l
184.953125 -6.71875 l
184.953125 -4.71875 184.765625 -3.40625 184.765625 -3.40625 c
185 -3.40625 l
186.15625 -5.265625 188.273438 -6.328125 188.273438 -6.328125 c
190.390625 -7.390625 193.109375 -7.390625 193.109375 -7.390625 c
197.828125 -7.390625 200.179687 -5.15625 200.179687 -5.15625 c
202.53125 -2.921875 202.53125 1.953125 202.53125 1.953125 c
202.53125 18.71875 l
198.640625 18.71875 l
h
221.390625 19.1875 m
215.6875 19.1875 212.398438 15.71875 212.398438 15.71875 c
209.109375 12.25 209.109375 6.078125 209.109375 6.078125 c
209.109375 -0.125 212.164062 -3.78125 212.164062 -3.78125 c
215.21875 -7.4375 220.375 -7.4375 220.375 -7.4375 c
225.203125 -7.4375 228.015625 -4.265625 228.015625 -4.265625 c
230.828125 -1.09375 230.828125 4.109375 230.828125 4.109375 c
230.828125 6.578125 l
213.140625 6.578125 l
213.25 11.09375 215.421875 13.4375 215.421875 13.4375 c
217.59375 15.78125 221.53125 15.78125 221.53125 15.78125 c
225.671875 15.78125 229.734375 14.046875 229.734375 14.046875 c
229.734375 17.515625 l
227.671875 18.40625 225.828125 18.796875 225.828125 18.796875 c
223.984375 19.1875 221.390625 19.1875 221.390625 19.1875 c
h
220.328125 -4.1875 m
217.234375 -4.1875 215.398438 -2.171875 215.398438 -2.171875 c
213.5625 -0.15625 213.234375 3.40625 213.234375 3.40625 c
226.65625 3.40625 l
226.65625 -0.265625 225.015625 -2.226563 225.015625 -2.226563 c
223.375 -4.1875 220.328125 -4.1875 220.328125 -4.1875 c
h
245.75 15.96875 m
246.78125 15.96875 247.742188 15.820313 247.742188 15.820313 c
248.703125 15.671875 249.265625 15.5 249.265625 15.5 c
249.265625 18.484375 l
248.640625 18.796875 247.40625 18.992187 247.40625 18.992187 c
246.171875 19.1875 245.1875 19.1875 245.1875 19.1875 c
237.734375 19.1875 237.734375 11.328125 237.734375 11.328125 c
237.734375 -3.953125 l
234.0625 -3.953125 l
234.0625 -5.828125 l
237.734375 -7.4375 l
239.375 -12.921875 l
241.625 -12.921875 l
241.625 -6.96875 l
249.078125 -6.96875 l
249.078125 -3.953125 l
241.625 -3.953125 l
241.625 11.171875 l
241.625 13.484375 242.726562 14.726563 242.726562 14.726563 c
243.828125 15.96875 245.75 15.96875 245.75 15.96875 c
h
270.203125 18.71875 m
269.4375 15.0625 l
269.25 15.0625 l
267.328125 17.46875 265.414063 18.328125 265.414063 18.328125 c
263.5 19.1875 260.640625 19.1875 260.640625 19.1875 c
256.828125 19.1875 254.65625 17.21875 254.65625 17.21875 c
252.484375 15.25 252.484375 11.609375 252.484375 11.609375 c
252.484375 3.828125 264.9375 3.453125 264.9375 3.453125 c
269.296875 3.3125 l
269.296875 1.71875 l
269.296875 -1.296875 267.992187 -2.742188 267.992187 -2.742188 c
266.6875 -4.1875 263.828125 -4.1875 263.828125 -4.1875 c
260.625 -4.1875 256.5625 -2.21875 256.5625 -2.21875 c
255.375 -5.1875 l
257.265625 -6.21875 259.53125 -6.804687 259.53125 -6.804687 c
261.796875 -7.390625 264.0625 -7.390625 264.0625 -7.390625 c
268.65625 -7.390625 270.875 -5.351563 270.875 -5.351563 c
273.09375 -3.3125 273.09375 1.1875 273.09375 1.1875 c
273.09375 18.71875 l
270.203125 18.71875 l
h
261.421875 15.96875 m
265.046875 15.96875 267.125 13.976563 267.125 13.976563 c
269.203125 11.984375 269.203125 8.40625 269.203125 8.40625 c
269.203125 6.078125 l
265.3125 6.25 l
260.671875 6.40625 258.617188 7.6875 258.617188 7.6875 c
256.5625 8.96875 256.5625 11.65625 256.5625 11.65625 c
256.5625 13.765625 257.84375 14.867188 257.84375 14.867188 c
259.125 15.96875 261.421875 15.96875 261.421875 15.96875 c
h
297.671875 11.703125 m
297.671875 15.296875 295 17.242187 295 17.242187 c
292.328125 19.1875 287.5 19.1875 287.5 19.1875 c
282.390625 19.1875 279.53125 17.5625 279.53125 17.5625 c
279.53125 13.953125 l
281.375 14.890625 283.5 15.429688 283.5 15.429688 c
285.625 15.96875 287.59375 15.96875 287.59375 15.96875 c
290.640625 15.96875 292.28125 15 292.28125 15 c
293.921875 14.03125 293.921875 12.03125 293.921875 12.03125 c
293.921875 10.53125 292.617188 9.46875 292.617188 9.46875 c
291.3125 8.40625 287.546875 6.953125 287.546875 6.953125 c
283.953125 5.609375 282.445312 4.617187 282.445312 4.617187 c
280.9375 3.625 280.195312 2.359375 280.195312 2.359375 c
279.453125 1.09375 279.453125 -0.671875 279.453125 -0.671875 c
279.453125 -3.8125 282.007813 -5.625 282.007813 -5.625 c
284.5625 -7.4375 289.015625 -7.4375 289.015625 -7.4375 c
293.171875 -7.4375 297.125 -5.75 297.125 -5.75 c
295.75 -2.59375 l
291.875 -4.1875 288.734375 -4.1875 288.734375 -4.1875 c
285.96875 -4.1875 284.5625 -3.320313 284.5625 -3.320313 c
283.15625 -2.453125 283.15625 -0.921875 283.15625 -0.921875 c
283.15625 0.109375 283.6875 0.835938 283.6875 0.835938 c
284.21875 1.5625 285.390625 2.21875 285.390625 2.21875 c
286.5625 2.875 289.890625 4.109375 289.890625 4.109375 c
294.453125 5.78125 296.0625 7.46875 296.0625 7.46875 c
297.671875 9.15625 297.671875 11.703125 297.671875 11.703125 c
h
312.296875 15.96875 m
313.328125 15.96875 314.289063 15.820313 314.289063 15.820313 c
315.25 15.671875 315.8125 15.5 315.8125 15.5 c
315.8125 18.484375 l
315.1875 18.796875 313.953125 18.992187 313.953125 18.992187 c
312.71875 19.1875 311.734375 19.1875 311.734375 19.1875 c
304.28125 19.1875 304.28125 11.328125 304.28125 11.328125 c
304.28125 -3.953125 l
300.609375 -3.953125 l
300.609375 -5.828125 l
304.28125 -7.4375 l
305.921875 -12.921875 l
308.171875 -12.921875 l
308.171875 -6.96875 l
315.625 -6.96875 l
315.625 -3.953125 l
308.171875 -3.953125 l
308.171875 11.171875 l
308.171875 13.484375 309.273437 14.726563 309.273437 14.726563 c
310.375 15.96875 312.296875 15.96875 312.296875 15.96875 c
h
336.734375 18.71875 m
335.96875 15.0625 l
335.78125 15.0625 l
333.859375 17.46875 331.945312 18.328125 331.945312 18.328125 c
330.03125 19.1875 327.171875 19.1875 327.171875 19.1875 c
323.359375 19.1875 321.1875 17.21875 321.1875 17.21875 c
319.015625 15.25 319.015625 11.609375 319.015625 11.609375 c
319.015625 3.828125 331.46875 3.453125 331.46875 3.453125 c
335.828125 3.3125 l
335.828125 1.71875 l
335.828125 -1.296875 334.523437 -2.742188 334.523437 -2.742188 c
333.21875 -4.1875 330.359375 -4.1875 330.359375 -4.1875 c
327.15625 -4.1875 323.09375 -2.21875 323.09375 -2.21875 c
321.90625 -5.1875 l
323.796875 -6.21875 326.0625 -6.804687 326.0625 -6.804687 c
328.328125 -7.390625 330.59375 -7.390625 330.59375 -7.390625 c
335.1875 -7.390625 337.40625 -5.351563 337.40625 -5.351563 c
339.625 -3.3125 339.625 1.1875 339.625 1.1875 c
339.625 18.71875 l
336.734375 18.71875 l
h
327.953125 15.96875 m
331.578125 15.96875 333.65625 13.976563 333.65625 13.976563 c
335.734375 11.984375 335.734375 8.40625 335.734375 8.40625 c
335.734375 6.078125 l
331.84375 6.25 l
327.203125 6.40625 325.148438 7.6875 325.148438 7.6875 c
323.09375 8.96875 323.09375 11.65625 323.09375 11.65625 c
323.09375 13.765625 324.375 14.867188 324.375 14.867188 c
325.65625 15.96875 327.953125 15.96875 327.953125 15.96875 c
h
359.359375 -7.4375 m
361.078125 -7.4375 362.4375 -7.15625 362.4375 -7.15625 c
361.890625 -3.546875 l
360.296875 -3.90625 359.078125 -3.90625 359.078125 -3.90625 c
355.96875 -3.90625 353.75 -1.375 353.75 -1.375 c
351.53125 1.15625 351.53125 4.9375 351.53125 4.9375 c
351.53125 18.71875 l
347.640625 18.71875 l
347.640625 -6.96875 l
350.859375 -6.96875 l
351.296875 -2.21875 l
351.484375 -2.21875 l
352.921875 -4.71875 354.9375 -6.078125 354.9375 -6.078125 c
356.953125 -7.4375 359.359375 -7.4375 359.359375 -7.4375 c
h
f
Q
q
[1.041667 0 0 1.041667 0 0] cm
-0.000046 -0.000046 4556.000046 2579.999802 re
W
/DeviceGray {} cs
[0.2667] sc
/DeviceGray {} CS
[0] SC
4147.890625 2534.875 m
4147.890625 2539.40625 4144.609375 2541.9375 4144.609375 2541.9375 c
4141.328125 2544.46875 4135.703125 2544.46875 4135.703125 2544.46875 c
4129.609375 2544.46875 4126.328125 2542.890625 4126.328125 2542.890625 c
4126.328125 2539.046875 l
4128.4375 2539.9375 4130.921875 2540.453125 4130.921875 2540.453125 c
4133.40625 2540.96875 4135.84375 2540.96875 4135.84375 2540.96875 c
4139.828125 2540.96875 4141.84375 2539.460938 4141.84375 2539.460938 c
4143.859375 2537.953125 4143.859375 2535.25 4143.859375 2535.25 c
4143.859375 2533.46875 4143.148438 2532.335938 4143.148438 2532.335938 c
4142.4375 2531.203125 4140.757812 2530.242188 4140.757812 2530.242188 c
4139.078125 2529.28125 4135.65625 2528.0625 4135.65625 2528.0625 c
4130.875 2526.34375 4128.828125 2524 4128.828125 2524 c
4126.78125 2521.65625 4126.78125 2517.890625 4126.78125 2517.890625 c
4126.78125 2513.921875 4129.757812 2511.578125 4129.757812 2511.578125 c
4132.734375 2509.234375 4137.625 2509.234375 4137.625 2509.234375 c
4142.734375 2509.234375 4147.03125 2511.109375 4147.03125 2511.109375 c
4145.78125 2514.578125 l
4141.546875 2512.796875 4137.53125 2512.796875 4137.53125 2512.796875 c
4134.375 2512.796875 4132.59375 2514.15625 4132.59375 2514.15625 c
4130.8125 2515.515625 4130.8125 2517.9375 4130.8125 2517.9375 c
4130.8125 2519.71875 4131.46875 2520.851563 4131.46875 2520.851563 c
4132.125 2521.984375 4133.679688 2522.9375 4133.679688 2522.9375 c
4135.234375 2523.890625 4138.453125 2525.03125 4138.453125 2525.03125 c
4143.84375 2526.953125 4145.867188 2529.15625 4145.867188 2529.15625 c
4147.890625 2531.359375 4147.890625 2534.875 4147.890625 2534.875 c
h
4176.484375 2531.125 m
4176.484375 2537.40625 4173.320313 2540.9375 4173.320313 2540.9375 c
4170.15625 2544.46875 4164.578125 2544.46875 4164.578125 2544.46875 c
4161.140625 2544.46875 4158.46875 2542.851563 4158.46875 2542.851563 c
4155.796875 2541.234375 4154.34375 2538.210938 4154.34375 2538.210938 c
4152.890625 2535.1875 4152.890625 2531.125 4152.890625 2531.125 c
4152.890625 2524.84375 4156.03125 2521.34375 4156.03125 2521.34375 c
4159.171875 2517.84375 4164.75 2517.84375 4164.75 2517.84375 c
4170.140625 2517.84375 4173.3125 2521.429688 4173.3125 2521.429688 c
4176.484375 2525.015625 4176.484375 2531.125 4176.484375 2531.125 c
h
4156.921875 2531.125 m
4156.921875 2536.046875 4158.890625 2538.625 4158.890625 2538.625 c
4160.859375 2541.203125 4164.671875 2541.203125 4164.671875 2541.203125 c
4168.5 2541.203125 4170.476563 2538.640625 4170.476563 2538.640625 c
4172.453125 2536.078125 4172.453125 2531.125 4172.453125 2531.125 c
4172.453125 2526.234375 4170.476563 2523.6875 4170.476563 2523.6875 c
4168.5 2521.140625 4164.625 2521.140625 4164.625 2521.140625 c
4160.8125 2521.140625 4158.867188 2523.648438 4158.867188 2523.648438 c
4156.921875 2526.15625 4156.921875 2531.125 4156.921875 2531.125 c
h
4186.953125 2518.3125 m
4186.953125 2534.96875 l
4186.953125 2538.109375 4188.382813 2539.65625 4188.382813 2539.65625 c
4189.8125 2541.203125 4192.859375 2541.203125 4192.859375 2541.203125 c
4196.890625 2541.203125 4198.757812 2539 4198.757812 2539 c
4200.625 2536.796875 4200.625 2531.8125 4200.625 2531.8125 c
4200.625 2518.3125 l
4204.515625 2518.3125 l
4204.515625 2544 l
4201.296875 2544 l
4200.734375 2540.546875 l
4200.53125 2540.546875 l
4199.328125 2542.453125 4197.210938 2543.460938 4197.210938 2543.460938 c
4195.09375 2544.46875 4192.375 2544.46875 4192.375 2544.46875 c
4187.6875 2544.46875 4185.351563 2542.242188 4185.351563 2542.242188 c
4183.015625 2540.015625 4183.015625 2535.109375 4183.015625 2535.109375 c
4183.015625 2518.3125 l
4186.953125 2518.3125 l
h
4224.484375 2517.84375 m
4226.203125 2517.84375 4227.5625 2518.125 4227.5625 2518.125 c
4227.015625 2521.734375 l
4225.421875 2521.375 4224.203125 2521.375 4224.203125 2521.375 c
4221.09375 2521.375 4218.875 2523.90625 4218.875 2523.90625 c
4216.65625 2526.4375 4216.65625 2530.21875 4216.65625 2530.21875 c
4216.65625 2544 l
4212.765625 2544 l
4212.765625 2518.3125 l
4215.984375 2518.3125 l
4216.421875 2523.0625 l
4216.609375 2523.0625 l
4218.046875 2520.5625 4220.0625 2519.203125 4220.0625 2519.203125 c
4222.078125 2517.84375 4224.484375 2517.84375 4224.484375 2517.84375 c
h
4242.625 2544.46875 m
4237.046875 2544.46875 4233.992188 2541.03125 4233.992188 2541.03125 c
4230.9375 2537.59375 4230.9375 2531.3125 4230.9375 2531.3125 c
4230.9375 2524.875 4234.039063 2521.359375 4234.039063 2521.359375 c
4237.140625 2517.84375 4242.890625 2517.84375 4242.890625 2517.84375 c
4244.734375 2517.84375 4246.585938 2518.242188 4246.585938 2518.242188 c
4248.4375 2518.640625 4249.5 2519.171875 4249.5 2519.171875 c
4248.296875 2522.484375 l
4247.015625 2521.96875 4245.492188 2521.625 4245.492188 2521.625 c
4243.96875 2521.28125 4242.796875 2521.28125 4242.796875 2521.28125 c
4234.96875 2521.28125 4234.96875 2531.265625 4234.96875 2531.265625 c
4234.96875 2536 4236.875 2538.53125 4236.875 2538.53125 c
4238.78125 2541.0625 4242.53125 2541.0625 4242.53125 2541.0625 c
4245.75 2541.0625 4249.125 2539.6875 4249.125 2539.6875 c
4249.125 2543.125 l
4246.546875 2544.46875 4242.625 2544.46875 4242.625 2544.46875 c
h
4266.0625 2544.46875 m
4260.359375 2544.46875 4257.070312 2541 4257.070312 2541 c
4253.78125 2537.53125 4253.78125 2531.359375 4253.78125 2531.359375 c
4253.78125 2525.15625 4256.835938 2521.5 4256.835938 2521.5 c
4259.890625 2517.84375 4265.046875 2517.84375 4265.046875 2517.84375 c
4269.875 2517.84375 4272.6875 2521.015625 4272.6875 2521.015625 c
4275.5 2524.1875 4275.5 2529.390625 4275.5 2529.390625 c
4275.5 2531.859375 l
4257.8125 2531.859375 l
4257.921875 2536.375 4260.09375 2538.71875 4260.09375 2538.71875 c
4262.265625 2541.0625 4266.203125 2541.0625 4266.203125 2541.0625 c
4270.34375 2541.0625 4274.40625 2539.328125 4274.40625 2539.328125 c
4274.40625 2542.796875 l
4272.34375 2543.6875 4270.5 2544.078125 4270.5 2544.078125 c
4268.65625 2544.46875 4266.0625 2544.46875 4266.0625 2544.46875 c
h
4265 2521.09375 m
4261.90625 2521.09375 4260.070312 2523.109375 4260.070312 2523.109375 c
4258.234375 2525.125 4257.90625 2528.6875 4257.90625 2528.6875 c
4271.328125 2528.6875 l
4271.328125 2525.015625 4269.6875 2523.054688 4269.6875 2523.054688 c
4268.046875 2521.09375 4265 2521.09375 4265 2521.09375 c
h
4281.578125 2541.515625 m
4281.578125 2539.9375 4282.296875 2539.132813 4282.296875 2539.132813 c
4283.015625 2538.328125 4284.34375 2538.328125 4284.34375 2538.328125 c
4285.703125 2538.328125 4286.46875 2539.132813 4286.46875 2539.132813 c
4287.234375 2539.9375 4287.234375 2541.515625 4287.234375 2541.515625 c
4287.234375 2543.03125 4286.460938 2543.859375 4286.460938 2543.859375 c
4285.6875 2544.6875 4284.34375 2544.6875 4284.34375 2544.6875 c
4283.15625 2544.6875 4282.367188 2543.945313 4282.367188 2543.945313 c
4281.578125 2543.203125 4281.578125 2541.515625 4281.578125 2541.515625 c
h
4281.578125 2520.8125 m
4281.578125 2517.65625 4284.34375 2517.65625 4284.34375 2517.65625 c
4287.234375 2517.65625 4287.234375 2520.8125 4287.234375 2520.8125 c
4287.234375 2522.34375 4286.460938 2523.164063 4286.460938 2523.164063 c
4285.6875 2523.984375 4284.34375 2523.984375 4284.34375 2523.984375 c
4283.15625 2523.984375 4282.367188 2523.242188 4282.367188 2523.242188 c
4281.578125 2522.5 4281.578125 2520.8125 4281.578125 2520.8125 c
h
f
Q
q
[1.041667 0 0 1.041667 0 0] cm
-0.000046 -0.000046 4556.000046 2579.999802 re
W
/DeviceGray {} cs
[0.2667] sc
/DeviceGray {} CS
[0] SC
4313 2544 m
4303.25 2518.3125 l
4307.421875 2518.3125 l
4312.953125 2533.546875 l
4314.828125 2538.890625 4315.15625 2540.484375 4315.15625 2540.484375 c
4315.34375 2540.484375 l
4315.609375 2539.234375 4316.976563 2535.335938 4316.976563 2535.335938 c
4318.34375 2531.4375 4323.125 2518.3125 4323.125 2518.3125 c
4327.296875 2518.3125 l
4317.546875 2544 l
4313 2544 l
h
4347.21875 2544 m
4346.453125 2540.34375 l
4346.265625 2540.34375 l
4344.34375 2542.75 4342.429688 2543.609375 4342.429688 2543.609375 c
4340.515625 2544.46875 4337.65625 2544.46875 4337.65625 2544.46875 c
4333.84375 2544.46875 4331.671875 2542.5 4331.671875 2542.5 c
4329.5 2540.53125 4329.5 2536.890625 4329.5 2536.890625 c
4329.5 2529.109375 4341.953125 2528.734375 4341.953125 2528.734375 c
4346.3125 2528.59375 l
4346.3125 2527 l
4346.3125 2523.984375 4345.007812 2522.539063 4345.007812 2522.539063 c
4343.703125 2521.09375 4340.84375 2521.09375 4340.84375 2521.09375 c
4337.640625 2521.09375 4333.578125 2523.0625 4333.578125 2523.0625 c
4332.390625 2520.09375 l
4334.28125 2519.0625 4336.546875 2518.476563 4336.546875 2518.476563 c
4338.8125 2517.890625 4341.078125 2517.890625 4341.078125 2517.890625 c
4345.671875 2517.890625 4347.890625 2519.929688 4347.890625 2519.929688 c
4350.109375 2521.96875 4350.109375 2526.46875 4350.109375 2526.46875 c
4350.109375 2544 l
4347.21875 2544 l
h
4338.4375 2541.25 m
4342.0625 2541.25 4344.140625 2539.257813 4344.140625 2539.257813 c
4346.21875 2537.265625 4346.21875 2533.6875 4346.21875 2533.6875 c
4346.21875 2531.359375 l
4342.328125 2531.53125 l
4337.6875 2531.6875 4335.632813 2532.96875 4335.632813 2532.96875 c
4333.578125 2534.25 4333.578125 2536.9375 4333.578125 2536.9375 c
4333.578125 2539.046875 4334.859375 2540.148438 4334.859375 2540.148438 c
4336.140625 2541.25 4338.4375 2541.25 4338.4375 2541.25 c
h
4362.015625 2544 m
4358.125 2544 l
4358.125 2507.53125 l
4362.015625 2507.53125 l
4362.015625 2544 l
h
4373.921875 2518.3125 m
4373.921875 2534.96875 l
4373.921875 2538.109375 4375.351563 2539.65625 4375.351563 2539.65625 c
4376.78125 2541.203125 4379.828125 2541.203125 4379.828125 2541.203125 c
4383.859375 2541.203125 4385.726563 2539 4385.726563 2539 c
4387.59375 2536.796875 4387.59375 2531.8125 4387.59375 2531.8125 c
4387.59375 2518.3125 l
4391.484375 2518.3125 l
4391.484375 2544 l
4388.265625 2544 l
4387.703125 2540.546875 l
4387.5 2540.546875 l
4386.296875 2542.453125 4384.179688 2543.460938 4384.179688 2543.460938 c
4382.0625 2544.46875 4379.34375 2544.46875 4379.34375 2544.46875 c
4374.65625 2544.46875 4372.320313 2542.242188 4372.320313 2542.242188 c
4369.984375 2540.015625 4369.984375 2535.109375 4369.984375 2535.109375 c
4369.984375 2518.3125 l
4373.921875 2518.3125 l
h
4410.578125 2544.46875 m
4404.875 2544.46875 4401.585938 2541 4401.585938 2541 c
4398.296875 2537.53125 4398.296875 2531.359375 4398.296875 2531.359375 c
4398.296875 2525.15625 4401.351563 2521.5 4401.351563 2521.5 c
4404.40625 2517.84375 4409.5625 2517.84375 4409.5625 2517.84375 c
4414.390625 2517.84375 4417.203125 2521.015625 4417.203125 2521.015625 c
4420.015625 2524.1875 4420.015625 2529.390625 4420.015625 2529.390625 c
4420.015625 2531.859375 l
4402.328125 2531.859375 l
4402.4375 2536.375 4404.609375 2538.71875 4404.609375 2538.71875 c
4406.78125 2541.0625 4410.71875 2541.0625 4410.71875 2541.0625 c
4414.859375 2541.0625 4418.921875 2539.328125 4418.921875 2539.328125 c
4418.921875 2542.796875 l
4416.859375 2543.6875 4415.015625 2544.078125 4415.015625 2544.078125 c
4413.171875 2544.46875 4410.578125 2544.46875 4410.578125 2544.46875 c
h
4409.515625 2521.09375 m
4406.421875 2521.09375 4404.585938 2523.109375 4404.585938 2523.109375 c
4402.75 2525.125 4402.421875 2528.6875 4402.421875 2528.6875 c
4415.84375 2528.6875 l
4415.84375 2525.015625 4414.203125 2523.054688 4414.203125 2523.054688 c
4412.5625 2521.09375 4409.515625 2521.09375 4409.515625 2521.09375 c
h
4443.234375 2536.984375 m
4443.234375 2540.578125 4440.5625 2542.523438 4440.5625 2542.523438 c
4437.890625 2544.46875 4433.0625 2544.46875 4433.0625 2544.46875 c
4427.953125 2544.46875 4425.09375 2542.84375 4425.09375 2542.84375 c
4425.09375 2539.234375 l
4426.9375 2540.171875 4429.0625 2540.710938 4429.0625 2540.710938 c
4431.1875 2541.25 4433.15625 2541.25 4433.15625 2541.25 c
4436.203125 2541.25 4437.84375 2540.28125 4437.84375 2540.28125 c
4439.484375 2539.3125 4439.484375 2537.3125 4439.484375 2537.3125 c
4439.484375 2535.8125 4438.179688 2534.75 4438.179688 2534.75 c
4436.875 2533.6875 4433.109375 2532.234375 4433.109375 2532.234375 c
4429.515625 2530.890625 4428.007812 2529.898438 4428.007812 2529.898438 c
4426.5 2528.90625 4425.757812 2527.640625 4425.757812 2527.640625 c
4425.015625 2526.375 4425.015625 2524.609375 4425.015625 2524.609375 c
4425.015625 2521.46875 4427.570312 2519.65625 4427.570312 2519.65625 c
4430.125 2517.84375 4434.578125 2517.84375 4434.578125 2517.84375 c
4438.734375 2517.84375 4442.6875 2519.53125 4442.6875 2519.53125 c
4441.3125 2522.6875 l
4437.4375 2521.09375 4434.296875 2521.09375 4434.296875 2521.09375 c
4431.53125 2521.09375 4430.125 2521.960938 4430.125 2521.960938 c
4428.71875 2522.828125 4428.71875 2524.359375 4428.71875 2524.359375 c
4428.71875 2525.390625 4429.25 2526.117188 4429.25 2526.117188 c
4429.78125 2526.84375 4430.953125 2527.5 4430.953125 2527.5 c
4432.125 2528.15625 4435.453125 2529.390625 4435.453125 2529.390625 c
4440.015625 2531.0625 4441.625 2532.75 4441.625 2532.75 c
4443.234375 2534.4375 4443.234375 2536.984375 4443.234375 2536.984375 c
h
4448.984375 2541.515625 m
4448.984375 2539.9375 4449.703125 2539.132813 4449.703125 2539.132813 c
4450.421875 2538.328125 4451.75 2538.328125 4451.75 2538.328125 c
4453.109375 2538.328125 4453.875 2539.132813 4453.875 2539.132813 c
4454.640625 2539.9375 4454.640625 2541.515625 4454.640625 2541.515625 c
4454.640625 2543.03125 4453.867188 2543.859375 4453.867188 2543.859375 c
4453.09375 2544.6875 4451.75 2544.6875 4451.75 2544.6875 c
4450.5625 2544.6875 4449.773437 2543.945313 4449.773437 2543.945313 c
4448.984375 2543.203125 4448.984375 2541.515625 4448.984375 2541.515625 c
h
4472.59375 2544.46875 m
4467.015625 2544.46875 4463.960938 2541.03125 4463.960938 2541.03125 c
4460.90625 2537.59375 4460.90625 2531.3125 4460.90625 2531.3125 c
4460.90625 2524.875 4464.007812 2521.359375 4464.007812 2521.359375 c
4467.109375 2517.84375 4472.859375 2517.84375 4472.859375 2517.84375 c
4474.703125 2517.84375 4476.554688 2518.242188 4476.554688 2518.242188 c
4478.40625 2518.640625 4479.46875 2519.171875 4479.46875 2519.171875 c
4478.265625 2522.484375 l
4476.984375 2521.96875 4475.460938 2521.625 4475.460938 2521.625 c
4473.9375 2521.28125 4472.765625 2521.28125 4472.765625 2521.28125 c
4464.9375 2521.28125 4464.9375 2531.265625 4464.9375 2531.265625 c
4464.9375 2536 4466.84375 2538.53125 4466.84375 2538.53125 c
4468.75 2541.0625 4472.5 2541.0625 4472.5 2541.0625 c
4475.71875 2541.0625 4479.09375 2539.6875 4479.09375 2539.6875 c
4479.09375 2543.125 l
4476.515625 2544.46875 4472.59375 2544.46875 4472.59375 2544.46875 c
h
4501.75 2536.984375 m
4501.75 2540.578125 4499.078125 2542.523438 4499.078125 2542.523438 c
4496.40625 2544.46875 4491.578125 2544.46875 4491.578125 2544.46875 c
4486.46875 2544.46875 4483.609375 2542.84375 4483.609375 2542.84375 c
4483.609375 2539.234375 l
4485.453125 2540.171875 4487.578125 2540.710938 4487.578125 2540.710938 c
4489.703125 2541.25 4491.671875 2541.25 4491.671875 2541.25 c
4494.71875 2541.25 4496.359375 2540.28125 4496.359375 2540.28125 c
4498 2539.3125 4498 2537.3125 4498 2537.3125 c
4498 2535.8125 4496.695313 2534.75 4496.695313 2534.75 c
4495.390625 2533.6875 4491.625 2532.234375 4491.625 2532.234375 c
4488.03125 2530.890625 4486.523438 2529.898438 4486.523438 2529.898438 c
4485.015625 2528.90625 4484.273437 2527.640625 4484.273437 2527.640625 c
4483.53125 2526.375 4483.53125 2524.609375 4483.53125 2524.609375 c
4483.53125 2521.46875 4486.085938 2519.65625 4486.085938 2519.65625 c
4488.640625 2517.84375 4493.09375 2517.84375 4493.09375 2517.84375 c
4497.25 2517.84375 4501.203125 2519.53125 4501.203125 2519.53125 c
4499.828125 2522.6875 l
4495.953125 2521.09375 4492.8125 2521.09375 4492.8125 2521.09375 c
4490.046875 2521.09375 4488.640625 2521.960938 4488.640625 2521.960938 c
4487.234375 2522.828125 4487.234375 2524.359375 4487.234375 2524.359375 c
4487.234375 2525.390625 4487.765625 2526.117188 4487.765625 2526.117188 c
4488.296875 2526.84375 4489.46875 2527.5 4489.46875 2527.5 c
4490.640625 2528.15625 4493.96875 2529.390625 4493.96875 2529.390625 c
4498.53125 2531.0625 4500.140625 2532.75 4500.140625 2532.75 c
4501.75 2534.4375 4501.75 2536.984375 4501.75 2536.984375 c
h
4513.703125 2544 m
4503.953125 2518.3125 l
4508.125 2518.3125 l
4513.65625 2533.546875 l
4515.53125 2538.890625 4515.859375 2540.484375 4515.859375 2540.484375 c
4516.046875 2540.484375 l
4516.3125 2539.234375 4517.679688 2535.335938 4517.679688 2535.335938 c
4519.046875 2531.4375 4523.828125 2518.3125 4523.828125 2518.3125 c
4528 2518.3125 l
4518.25 2544 l
4513.703125 2544 l
h
f
Q
Q
showpage
%%PageTrailer
pdfEndPage
%%Trailer
end
%%DocumentSuppliedResources:
%%EOF
