note,b,s,t,L,H,AH,A,thetastar,thetast_paren,wL,wH,eduprice,eduprice_wL,subsidy_share,zbarL,zbarH,zbar,empL,empH,avgwL,avgwH,cwp,cwp_emp,earnings_premium,wrat,xi,alpha,wedge,delta,qL,qH,alphaterm,qLminqH,beta,rho,zLthetastar,zHthetastar,Lcheck,Hcheck,Y,fthetastar,zL_f_thetastar,zH_f_thetastar,eps_s_thetastar,target_eps_s_thetastar,hoursL,hoursH,xi_L,xi_H,xi_L_zbar,xi_H_zbar,gamma,epsilon,sigma,sigma_theta,mu_theta,p,lb,ub,obj,r
1,0.31868,0.17144,0.45603,0.17754,0.79348,2,1,0.92672,0.9058,0.48527,1.0394,0.20868,0.43002,0.45102,0.086155,0.82476,0.91091,0.43583,0.56417,0.33385,1.5653,0.7617,1.5451,9.573,2.1419,0.75827,0.90542,0.033681,3.9537,0.49012,0.21579,0.00085635,0.27433,1.5911,0.63197,0.29477,0.79347,0.17754,0.79348,0.91091,0.90195,0.26587,0.71567,0.61653,0.62725,0.25806,0.52692,0.042226,0.17797,0.046356,0.19538,0.4774,0.3,100,0.4711,0,0.38012,0.0001,10,0.1797,1
1,0.35128,0.17991,0.47869,0.17618,0.82263,2,1.1,0.94252,0.91883,0.48546,1.0394,0.20021,0.41241,0.4733,0.085529,0.85502,0.94055,0.45,0.55,0.32779,1.6624,0.76127,1.6237,9.9968,2.141,0.76624,0.90906,0.03313,3.9069,0.4834,0.20879,0.00082667,0.27461,1.5916,0.69123,0.29537,0.79463,0.17618,0.82263,0.94055,0.89141,0.2633,0.70834,0.67433,0.63049,0.26093,0.51432,0.041345,0.17852,0.043958,0.1898,0.4774,0.3,100,0.4711,0,0.38012,0.0001,10,0.19012,1
1,0.38663,0.18761,0.49933,0.1739,0.8584,2,1.2,0.95557,0.93156,0.48571,1.0393,0.1925,0.39634,0.49357,0.084465,0.89215,0.97661,0.46158,0.53842,0.32207,1.7685,0.76071,1.7031,10.562,2.1398,0.77389,0.91351,0.032541,3.8787,0.47751,0.20231,0.00079007,0.27521,1.5923,0.74968,0.29605,0.79589,0.1739,0.8584,0.97661,0.88209,0.26114,0.70205,0.73134,0.63252,0.26226,0.50445,0.040333,0.18049,0.041299,0.18481,0.4774,0.3,100,0.4711,0,0.38012,0.0001,10,0.202,1
1,0.42524,0.19464,0.51819,0.17102,0.90079,2,1.3,0.96649,0.94402,0.486,1.0393,0.18547,0.38163,0.51207,0.083117,0.93616,1.0193,0.47116,0.52884,0.31666,1.8846,0.76006,1.7837,11.263,2.1384,0.78128,0.91846,0.031976,3.8649,0.47229,0.1962,0.00074895,0.27609,1.5931,0.80727,0.2968,0.79724,0.17102,0.90079,1.0193,0.8739,0.25938,0.69671,0.78749,0.63378,0.26248,0.49673,0.039255,0.18368,0.038513,0.1802,0.4774,0.3,100,0.4711,0,0.38012,0.0001,10,0.21547,1
1,0.46764,0.20108,0.53549,0.16777,0.95003,2,1.4,0.9757,0.95622,0.48632,1.0392,0.17903,0.36814,0.529,0.081591,0.98728,1.0689,0.47918,0.52082,0.31155,2.0119,0.75934,1.8652,12.1,2.1369,0.78846,0.92367,0.031471,3.8627,0.46759,0.19038,0.00070507,0.27721,1.594,0.86396,0.29762,0.79867,0.16777,0.95003,1.0689,0.86674,0.25796,0.69224,0.84273,0.63454,0.26188,0.49073,0.038151,0.18796,0.035693,0.17585,0.4774,0.3,100,0.4711,0,0.38012,0.0001,10,0.2307,1
1,0.51442,0.20699,0.5514,0.1643,1.0065,2,1.5,0.98355,0.96817,0.48668,1.0391,0.17313,0.35573,0.54454,0.079961,1.0459,1.1259,0.48596,0.51404,0.30673,2.1516,0.75855,1.948,13.081,2.1352,0.79545,0.92898,0.031043,3.8703,0.46332,0.18477,0.00065975,0.27855,1.595,0.91969,0.29849,0.80019,0.1643,1.0065,1.1259,0.86046,0.25684,0.68853,0.89702,0.63496,0.26069,0.48613,0.037048,0.19326,0.032905,0.17165,0.4774,0.3,100,0.4711,0,0.38012,0.0001,10,0.24786,1
1,0.56623,0.21242,0.56606,0.16071,1.0709,2,1.6,0.99029,0.9799,0.48706,1.0391,0.16769,0.3443,0.55884,0.078277,1.1128,1.191,0.49173,0.50827,0.30217,2.3054,0.75771,2.032,14.216,2.1334,0.80227,0.93428,0.030702,3.8862,0.45942,0.17932,0.00061403,0.2801,1.596,0.97441,0.29941,0.80178,0.16071,1.0709,1.191,0.85495,0.25598,0.68549,0.95028,0.63514,0.25905,0.48268,0.035962,0.19954,0.030194,0.16754,0.4774,0.3,100,0.4711,0,0.38012,0.0001,10,0.26719,1
1,0.62383,0.21743,0.5796,0.15709,1.1439,2,1.7,0.9961,0.99141,0.48746,1.039,0.16269,0.33374,0.57201,0.076577,1.1885,1.2651,0.49669,0.5033,0.29786,2.4751,0.75682,2.1174,15.521,2.1315,0.80895,0.93947,0.030452,3.9094,0.45583,0.17399,0.00056866,0.28183,1.5971,1.0281,0.30038,0.80346,0.15709,1.1439,1.2651,0.85011,0.25536,0.68304,1.0025,0.63517,0.25709,0.4802,0.034906,0.2068,0.027591,0.16346,0.4774,0.3,100,0.4711,0,0.38012,0.0001,10,0.28894,1
1,0.68808,0.22204,0.59215,0.1535,1.2264,2,1.8,1.0012,1.0028,0.48789,1.039,0.15808,0.324,0.58414,0.074892,1.2742,1.3491,0.50101,0.49899,0.2938,2.6627,0.7559,2.2042,17.014,2.1295,0.81549,0.94449,0.030316,3.9388,0.45248,0.16875,0.00052431,0.28373,1.5982,1.0805,0.30143,0.80529,0.1535,1.2264,1.3491,0.84582,0.25495,0.68112,1.0534,0.63508,0.25491,0.47854,0.033888,0.21503,0.025118,0.15939,0.4774,0.3,100,0.4711,0,0.38012,0.0001,10,0.31343,1
1,0.75995,0.22631,0.60378,0.14995,1.3197,2,1.9,1.0056,1.0139,0.48834,1.0389,0.1538,0.31495,0.59538,0.073225,1.3711,1.4443,0.50474,0.49525,0.28995,2.8706,0.75493,2.2926,18.724,2.1275,0.82192,0.9493,0.030247,3.9743,0.44938,0.16359,0.0004813,0.28579,1.5994,1.1319,0.3025,0.80713,0.14995,1.3197,1.4443,0.84204,0.25472,0.67964,1.1033,0.63491,0.25254,0.47762,0.032906,0.22429,0.022784,0.1553,0.4774,0.3,100,0.4711,0,0.38012,0.0001,10,0.34101,1
1,0.84057,0.23027,0.61459,0.14647,1.425,2,2,1.0095,1.0249,0.4888,1.0389,0.14985,0.30656,0.60579,0.071595,1.4804,1.552,0.50801,0.49199,0.28631,3.1015,0.75393,2.3826,20.678,2.1253,0.82823,0.95387,0.030263,4.0151,0.44647,0.15848,0.00044002,0.28799,1.6007,1.1821,0.30362,0.80906,0.14647,1.425,1.552,0.83869,0.25464,0.67855,1.152,0.63469,0.25006,0.47733,0.031965,0.23462,0.020596,0.15117,0.4774,0.3,100,0.4711,0,0.38012,0.0001,10,0.3721,1
1,0.93128,0.23393,0.62465,0.14309,1.5441,2,2.1,1.0129,1.0357,0.48929,1.0388,0.14618,0.29877,0.61543,0.070011,1.604,1.6741,0.51088,0.48912,0.28288,3.3586,0.75289,2.4743,22.911,2.1231,0.83444,0.95818,0.030366,4.0608,0.44374,0.15342,0.00040072,0.29033,1.602,1.231,0.30479,0.81108,0.14309,1.5441,1.6741,0.83571,0.25471,0.67783,1.1993,0.63442,0.24749,0.47759,0.031067,0.24609,0.018558,0.147,0.4774,0.3,100,0.4711,0,0.38012,0.0001,10,0.40719,1
1,1.0336,0.23733,0.63403,0.13981,1.6788,2,2.2,1.016,1.0464,0.48979,1.0388,0.14278,0.29152,0.62437,0.068477,1.7439,1.8124,0.51342,0.48658,0.27963,3.6455,0.75182,2.5678,25.467,2.1209,0.84055,0.96222,0.03055,4.1111,0.44117,0.14839,0.00036356,0.29278,1.6033,1.2786,0.306,0.81319,0.13981,1.6788,1.8124,0.83305,0.25492,0.67743,1.2454,0.63411,0.24488,0.47836,0.03021,0.25878,0.016669,0.14278,0.4774,0.3,100,0.4711,0,0.38012,0.0001,10,0.44687,1
1,1.1493,0.24049,0.64277,0.13664,1.8313,2,2.3,1.0187,1.0569,0.49031,1.0387,0.13962,0.28477,0.63268,0.066996,1.9023,1.9693,0.51566,0.48434,0.27656,3.9665,0.75072,2.6632,28.394,2.1185,0.84655,0.96598,0.030805,4.1658,0.43875,0.1434,0.00032863,0.29535,1.6047,1.3249,0.30727,0.81538,0.13664,1.8313,1.9693,0.83067,0.25524,0.67731,1.2901,0.63378,0.24225,0.47959,0.029394,0.27279,0.014927,0.13852,0.4774,0.3,100,0.4711,0,0.38012,0.0001,10,0.49179,1
1,1.2805,0.24342,0.65094,0.13359,2.0045,2,2.4,1.0211,1.0673,0.49084,1.0387,0.13669,0.27849,0.64039,0.065572,2.082,2.1476,0.51767,0.48233,0.27366,4.3264,0.74959,2.7606,31.751,2.1161,0.85246,0.96947,0.031142,4.2244,0.43645,0.13844,0.00029601,0.29801,1.6061,1.3698,0.30858,0.81767,0.13359,2.0045,2.1476,0.82853,0.25567,0.67747,1.3333,0.63343,0.23961,0.48123,0.028619,0.28824,0.013326,0.13422,0.4774,0.3,100,0.4711,0,0.38012,0.0001,10,0.54276,1
1,1.4297,0.24614,0.65858,0.13066,2.2012,2,2.5,1.0233,1.0776,0.4914,1.0387,0.13397,0.27264,0.64755,0.064205,2.2863,2.3506,0.51946,0.48054,0.27092,4.7312,0.74844,2.8601,35.61,2.1137,0.85827,0.97269,0.031552,4.2869,0.43427,0.13352,0.00026569,0.30075,1.6076,1.4133,0.30995,0.82007,0.13066,2.2012,2.3506,0.8266,0.25621,0.67787,1.3751,0.63305,0.23699,0.48325,0.027882,0.30527,0.011862,0.12987,0.4774,0.3,100,0.4711,0,0.38012,0.0001,10,0.60072,1
1,1.5998,0.24867,0.66572,0.12784,2.4254,2,2.6,1.0252,1.0878,0.49197,1.0386,0.13145,0.26718,0.6542,0.062894,2.5191,2.582,0.52107,0.47893,0.26834,5.1873,0.74725,2.9617,40.053,2.1112,0.86398,0.97564,0.032034,4.353,0.4322,0.12863,0.00023765,0.30357,1.6091,1.4553,0.31138,0.82256,0.12784,2.4254,2.582,0.82486,0.25684,0.6785,1.4154,0.63267,0.23438,0.48563,0.027183,0.32403,0.010528,0.12549,0.4774,0.3,100,0.4711,0,0.38012,0.0001,10,0.66675,1
1,1.7942,0.25102,0.67241,0.12514,2.6814,2,2.7,1.027,1.0979,0.49255,1.0386,0.1291,0.2621,0.66037,0.061639,2.7849,2.8466,0.52252,0.47748,0.2659,5.7027,0.74603,3.0656,45.181,2.1086,0.86959,0.97835,0.032585,4.4226,0.43022,0.12378,0.00021185,0.30645,1.6107,1.4957,0.31285,0.82516,0.12514,2.6814,2.8466,0.82328,0.25757,0.67934,1.4541,0.63227,0.23181,0.48835,0.026519,0.34471,0.009316,0.1211,0.4774,0.3,100,0.4711,0,0.38012,0.0001,10,0.74216,1
1,2.017,0.2532,0.67868,0.12256,2.9744,2,2.8,1.0286,1.1079,0.49315,1.0386,0.12692,0.25736,0.66611,0.060439,3.0892,3.1496,0.52383,0.47617,0.26361,6.2866,0.74479,3.1717,51.112,2.106,0.8751,0.98081,0.033202,4.4953,0.42834,0.11897,0.00018821,0.30937,1.6123,1.5346,0.31439,0.82786,0.12256,2.9744,3.1496,0.82185,0.25838,0.68038,1.4912,0.63185,0.22928,0.49139,0.025888,0.36751,0.0082195,0.11669,0.4774,0.3,100,0.4711,0,0.38012,0.0001,10,0.82848,1
1,2.273,0.25522,0.68455,0.12008,3.3106,2,2.9,1.03,1.1179,0.49377,1.0386,0.12489,0.25294,0.67143,0.059292,3.4382,3.4975,0.52501,0.47498,0.26144,6.9497,0.74351,3.2802,57.988,2.1033,0.8805,0.98305,0.033885,4.5712,0.42654,0.11421,0.00016665,0.31233,1.6139,1.5719,0.31598,0.83068,0.12008,3.3106,3.4975,0.82055,0.25928,0.68161,1.5267,0.63143,0.22679,0.49473,0.02529,0.39267,0.0072309,0.11227,0.4774,0.3,100,0.4711,0,0.38012,0.0001,10,0.92756,1
1,2.568,0.2571,0.69006,0.11771,3.6973,2,3,1.0313,1.1278,0.4944,1.0385,0.12302,0.24882,0.67637,0.058197,3.8397,3.8979,0.5261,0.4739,0.25941,7.7048,0.74221,3.3912,65.979,2.1006,0.88579,0.98507,0.034636,4.6499,0.42481,0.1095,0.00014707,0.31531,1.6156,1.6076,0.31763,0.83361,0.11771,3.6973,3.8979,0.81936,0.26026,0.68302,1.5606,0.63099,0.22435,0.49836,0.024723,0.42047,0.0063425,0.10787,0.4774,0.3,100,0.4711,0,0.38012,0.0001,10,1.0415,1
