b,s,t,L,H,AH,thetastar,wL,wH,eduprice,eduprice_wL,subsidy_share,zbarL,zbarH,zbar,empL,empH,avgwL,avgwH,cwp,cwp_emp,earnings_premium,wrat,xi,alpha,wedge,delta,qL,qH,alphaterm,qLminqH,beta,rho,zLthetastar,zHthetastar,Lcheck,Hcheck,Y,fthetastar,zL_f_thetastar,zH_f_thetastar,eps_s_thetastar,target_eps_s_thetastar,hoursL,hoursH,gamma,epsilon,sigma,sigma_theta,mu_theta,p,lb,ub,obj,r
0.36844,0.15188,0.44472,0.47754,0.50605,3,1.3554,0.75833,1.0965,0.22824,0.30097,0.39956,0.36213,0.5549,0.91703,0.74067,0.25933,0.67073,2.0761,0.36879,1.1299,1.5323,1.446,0.96976,0.6051,-0.031322,2.4996,0.044634,0.020854,0.16947,0.02378,2.6256,0.51189,0.86863,1.403,0.47754,0.50605,0.91703,0.50733,0.44068,0.71176,0.10232,0.10572,0.53991,0.26728,0.4774,0.3,1.41,0.4711,0,0.38012,1e-08,1000,0.02677,1
0.37974,0.15156,0.44488,0.47541,0.51477,3.1,1.3461,0.77627,1.1161,0.22855,0.29442,0.39873,0.36905,0.57451,0.94356,0.73593,0.26407,0.6839,2.103,0.36305,1.1233,1.5567,1.4377,0.96972,0.60887,-0.028795,2.5166,0.04481,0.020953,0.1689,0.023858,2.658,0.51012,0.88741,1.4226,0.47541,0.51477,0.94356,0.5156,0.45755,0.73351,0.10083,0.10552,0.53963,0.27318,0.4774,0.3,1.41,0.4711,0,0.38012,1e-08,1000,0.02759,1
0.39108,0.15124,0.44504,0.47333,0.52328,3.2,1.3372,0.79414,1.1355,0.22888,0.28821,0.39787,0.37589,0.59417,0.97006,0.73131,0.26869,0.69696,2.1299,0.35754,1.1171,1.5807,1.4298,0.96968,0.6125,-0.026303,2.5332,0.044982,0.021048,0.16833,0.023934,2.6901,0.50829,0.90613,1.4423,0.47333,0.52328,0.97006,0.5236,0.47445,0.75518,0.099365,0.10528,0.53933,0.27896,0.4774,0.3,1.41,0.4711,0,0.38012,1e-08,1000,0.028412,1
0.40243,0.15092,0.4452,0.4713,0.53162,3.3,1.3286,0.81194,1.1548,0.2292,0.28229,0.39703,0.38267,0.61389,0.99656,0.7268,0.2732,0.70993,2.1566,0.35222,1.1111,1.6042,1.4222,0.96964,0.61601,-0.023871,2.5495,0.04515,0.021141,0.16776,0.02401,2.722,0.5065,0.92481,1.4619,0.4713,0.53162,0.99656,0.53136,0.49141,0.77678,0.097935,0.10501,0.53902,0.28465,0.4774,0.3,1.41,0.4711,0,0.38012,1e-08,1000,0.029236,1
0.4138,0.15059,0.44534,0.46931,0.53978,3.4,1.3204,0.82968,1.1739,0.22952,0.27664,0.39618,0.38937,0.63367,1.023,0.72241,0.27759,0.72281,2.1832,0.34708,1.1054,1.6274,1.4149,0.9696,0.6194,-0.021489,2.5655,0.045315,0.02123,0.16719,0.024084,2.7538,0.5047,0.94345,1.4814,0.46931,0.53978,1.023,0.53888,0.50841,0.7983,0.096534,0.10469,0.53869,0.29025,0.4774,0.3,1.41,0.4711,0,0.38012,1e-08,1000,0.030061,1
0.42519,0.15027,0.44549,0.46735,0.54778,3.5,1.3125,0.84736,1.193,0.22985,0.27125,0.39532,0.39601,0.65351,1.0495,0.71811,0.28189,0.73561,2.2097,0.34213,1.0999,1.6502,1.4079,0.96957,0.62267,-0.019155,2.5812,0.045475,0.021317,0.16663,0.024158,2.7853,0.50291,0.96204,1.5009,0.46735,0.54778,1.0495,0.54618,0.52545,0.81976,0.095163,0.10435,0.53835,0.29575,0.4774,0.3,1.41,0.4711,0,0.38012,1e-08,1000,0.030887,1
0.4366,0.14995,0.44563,0.46544,0.55562,3.6,1.3049,0.86497,1.212,0.23017,0.2661,0.39447,0.40259,0.67341,1.076,0.71392,0.28608,0.74832,2.236,0.33734,1.0946,1.6727,1.4012,0.96953,0.62584,-0.016869,2.5967,0.045632,0.021401,0.16607,0.024231,2.8167,0.50112,0.98059,1.5203,0.46544,0.55562,1.076,0.55327,0.54253,0.84116,0.09382,0.10397,0.538,0.30116,0.4774,0.3,1.41,0.4711,0,0.38012,1e-08,1000,0.031716,1
0.44803,0.14962,0.44576,0.46357,0.5633,3.7,1.2975,0.88253,1.2309,0.2305,0.26118,0.39361,0.40911,0.69336,1.1025,0.70983,0.29017,0.76095,2.2623,0.33271,1.0896,1.6948,1.3947,0.9695,0.62891,-0.014621,2.6119,0.045785,0.021483,0.16552,0.024303,2.848,0.49931,0.9991,1.5398,0.46357,0.5633,1.1025,0.56015,0.55964,0.86248,0.092503,0.10358,0.53764,0.30649,0.4774,0.3,1.41,0.4711,0,0.38012,1e-08,1000,0.032545,1
0.45947,0.14929,0.4459,0.46174,0.57083,3.8,1.2904,0.90003,1.2497,0.23083,0.25647,0.39275,0.41558,0.71336,1.1289,0.70583,0.29417,0.7735,2.2884,0.32823,1.0847,1.7166,1.3885,0.96947,0.63189,-0.012417,2.6268,0.045935,0.021562,0.16497,0.024374,2.879,0.49751,1.0176,1.5591,0.46174,0.57083,1.1289,0.56682,0.57679,0.88375,0.091214,0.10316,0.53727,0.31173,0.4774,0.3,1.41,0.4711,0,0.38012,1e-08,1000,0.033376,1
0.47094,0.14896,0.44602,0.45994,0.57822,3.9,1.2836,0.91747,1.2684,0.23115,0.25195,0.39189,0.42198,0.73342,1.1554,0.70192,0.29808,0.78598,2.3144,0.3239,1.08,1.738,1.3825,0.96943,0.63477,-0.010253,2.6414,0.046082,0.021638,0.16442,0.024444,2.9099,0.49572,1.036,1.5785,0.45994,0.57822,1.1554,0.57331,0.59396,0.90495,0.089951,0.10272,0.53689,0.3169,0.4774,0.3,1.41,0.4711,0,0.38012,1e-08,1000,0.034209,1
0.48242,0.14863,0.44615,0.45819,0.58548,4,1.2769,0.93486,1.287,0.23148,0.24761,0.39102,0.42834,0.75353,1.1819,0.6981,0.3019,0.79838,2.3403,0.3197,1.0754,1.7592,1.3767,0.9694,0.63757,-0.0081272,2.6558,0.046226,0.021713,0.16388,0.024513,2.9406,0.49392,1.0544,1.5978,0.45819,0.58548,1.1819,0.57962,0.61117,0.9261,0.088714,0.10226,0.53651,0.32198,0.4774,0.3,1.41,0.4711,0,0.38012,1e-08,1000,0.035043,1
0.49392,0.1483,0.44627,0.45646,0.5926,4.1,1.2705,0.9522,1.3056,0.23181,0.24345,0.39015,0.43464,0.77369,1.2083,0.69436,0.30564,0.81072,2.3661,0.31563,1.0711,1.7801,1.3711,0.96937,0.6403,-0.0060381,2.67,0.046367,0.021786,0.16335,0.024581,2.9712,0.49212,1.0728,1.617,0.45646,0.5926,1.2083,0.58576,0.6284,0.94718,0.087502,0.10179,0.53612,0.32699,0.4774,0.3,1.41,0.4711,0,0.38012,1e-08,1000,0.035878,1
0.50544,0.14797,0.44639,0.45478,0.5996,4.2,1.2643,0.96949,1.3241,0.23214,0.23945,0.38928,0.4409,0.7939,1.2348,0.69071,0.30929,0.82298,2.3918,0.31169,1.0669,1.8006,1.3657,0.96934,0.64294,-0.0039842,2.684,0.046505,0.021857,0.16281,0.024649,3.0016,0.49032,1.0911,1.6363,0.45478,0.5996,1.2348,0.59172,0.64565,0.96821,0.086314,0.10131,0.53573,0.33193,0.4774,0.3,1.41,0.4711,0,0.38012,1e-08,1000,0.036715,1
0.51697,0.14764,0.4465,0.45312,0.60648,4.3,1.2583,0.98672,1.3424,0.23248,0.2356,0.38841,0.44711,0.81416,1.2613,0.68713,0.31287,0.83518,2.4174,0.30786,1.0628,1.821,1.3605,0.96931,0.64551,-0.0019643,2.6977,0.046641,0.021925,0.16229,0.024715,3.0319,0.48852,1.1095,1.6555,0.45312,0.60648,1.2613,0.59753,0.66293,0.98919,0.08515,0.10081,0.53534,0.3368,0.4774,0.3,1.41,0.4711,0,0.38012,1e-08,1000,0.037553,1
0.52852,0.14731,0.44662,0.4515,0.61323,4.4,1.2525,1.0039,1.3608,0.23281,0.2319,0.38753,0.45327,0.83447,1.2877,0.68362,0.31638,0.84732,2.4429,0.30414,1.0589,1.841,1.3555,0.96928,0.64801,2.2892e-05,2.7112,0.046774,0.021993,0.16177,0.024781,3.062,0.48673,1.1277,1.6747,0.4515,0.61323,1.2877,0.60318,0.68023,1.0101,0.084009,0.1003,0.53494,0.34159,0.4774,0.3,1.41,0.4711,0,0.38012,1e-08,1000,0.038392,1
0.54009,0.14697,0.44673,0.44991,0.61988,4.5,1.2468,1.0211,1.379,0.23314,0.22833,0.38666,0.45939,0.85483,1.3142,0.68019,0.31981,0.8594,2.4683,0.30053,1.0551,1.8608,1.3506,0.96926,0.65045,0.001979,2.7245,0.046904,0.022058,0.16125,0.024846,3.092,0.48493,1.146,1.6938,0.44991,0.61988,1.3142,0.60868,0.69755,1.031,0.082891,0.099787,0.53455,0.34632,0.4774,0.3,1.41,0.4711,0,0.38012,1e-08,1000,0.039233,1
0.55168,0.14664,0.44683,0.44836,0.62642,4.6,1.2413,1.0382,1.3972,0.23348,0.2249,0.38578,0.46546,0.87523,1.3407,0.67683,0.32317,0.87141,2.4936,0.29703,1.0514,1.8803,1.3459,0.96923,0.65282,0.0039048,2.7376,0.047032,0.022122,0.16074,0.02491,3.1219,0.48313,1.1642,1.7129,0.44836,0.62642,1.3407,0.61403,0.71489,1.0518,0.081795,0.099264,0.53415,0.35099,0.4774,0.3,1.41,0.4711,0,0.38012,1e-08,1000,0.040075,1
0.56328,0.1463,0.44694,0.44683,0.63285,4.7,1.236,1.0552,1.4153,0.23381,0.22158,0.38489,0.4715,0.89568,1.3672,0.67354,0.32646,0.88337,2.5189,0.29362,1.0478,1.8996,1.3413,0.9692,0.65513,0.0058018,2.7505,0.047161,0.022184,0.16024,0.024977,3.1516,0.48134,1.1825,1.732,0.44683,0.63285,1.3672,0.61925,0.73225,1.0726,0.08072,0.098734,0.53375,0.35559,0.4774,0.3,1.41,0.4711,0,0.38012,1e-08,1000,0.040919,1
0.5749,0.14597,0.44704,0.44533,0.63917,4.8,1.2308,1.0722,1.4334,0.23415,0.21838,0.38401,0.4775,0.91618,1.3937,0.67032,0.32968,0.89527,2.5441,0.2903,1.0444,1.9187,1.3368,0.96918,0.65738,0.0076707,2.7632,0.047285,0.022245,0.15974,0.02504,3.1811,0.47954,1.2007,1.7511,0.44533,0.63917,1.3937,0.62434,0.74962,1.0933,0.079666,0.0982,0.53335,0.36013,0.4774,0.3,1.41,0.4711,0,0.38012,1e-08,1000,0.041763,1
0.58654,0.14563,0.44713,0.44386,0.6454,4.9,1.2257,1.0892,1.4514,0.23449,0.21528,0.38312,0.48345,0.93672,1.4202,0.66716,0.33284,0.90712,2.5691,0.28708,1.0411,1.9376,1.3325,0.96915,0.65958,0.0095128,2.7758,0.047406,0.022304,0.15924,0.025101,3.2106,0.47775,1.2188,1.7702,0.44386,0.6454,1.4202,0.6293,0.76701,1.114,0.078633,0.097661,0.53295,0.3646,0.4774,0.3,1.41,0.4711,0,0.38012,1e-08,1000,0.042609,1
0.5981,0.14556,0.44722,0.44233,0.65166,5,1.2207,1.1063,1.4692,0.23456,0.21202,0.38292,0.48936,0.95739,1.4467,0.66394,0.33606,0.919,2.5937,0.28365,1.0375,1.9564,1.328,0.96912,0.66175,0.010929,2.7886,0.047529,0.022364,0.15875,0.025164,3.2425,0.47734,1.2371,1.7887,0.44233,0.65166,1.4467,0.63431,0.78467,1.1346,0.077778,0.097046,0.53249,0.36913,0.4774,0.3,1.41,0.4711,0,0.38012,1e-08,1000,0.04346,1
0.60977,0.14523,0.44732,0.44091,0.6577,5.1,1.2159,1.1232,1.487,0.23489,0.20912,0.38206,0.49524,0.97803,1.4733,0.6609,0.3391,0.93075,2.6186,0.28059,1.0344,1.9749,1.3239,0.9691,0.66385,0.012702,2.8007,0.047646,0.022421,0.15826,0.025225,3.2718,0.4756,1.2552,1.8077,0.44091,0.6577,1.4733,0.63903,0.8021,1.1552,0.076788,0.096498,0.53209,0.37349,0.4774,0.3,1.41,0.4711,0,0.38012,1e-08,1000,0.044308,1
0.62145,0.1449,0.44741,0.43952,0.66365,5.2,1.2112,1.1401,1.5049,0.23522,0.20632,0.3812,0.50109,0.99871,1.4998,0.65791,0.34209,0.94244,2.6434,0.2776,1.0314,1.9931,1.32,0.96908,0.6659,0.014452,2.8128,0.047761,0.022476,0.15779,0.025284,3.301,0.47386,1.2733,1.8267,0.43952,0.66366,1.4998,0.64364,0.81954,1.1757,0.075817,0.095949,0.53169,0.37781,0.4774,0.3,1.41,0.4711,0,0.38012,1e-08,1000,0.045158,1
0.63315,0.14457,0.4475,0.43815,0.66952,5.3,1.2067,1.1569,1.5226,0.23555,0.2036,0.38033,0.5069,1.0194,1.5263,0.65498,0.34502,0.95409,2.6682,0.27469,1.0284,2.0111,1.3161,0.96905,0.6679,0.016179,2.8246,0.047874,0.02253,0.15731,0.025343,3.3301,0.47212,1.2914,1.8456,0.43815,0.66952,1.5263,0.64813,0.83699,1.1962,0.074864,0.095398,0.53129,0.38207,0.4774,0.3,1.41,0.4711,0,0.38012,1e-08,1000,0.04601,1
0.64487,0.14424,0.44759,0.43681,0.67531,5.4,1.2023,1.1737,1.5403,0.23588,0.20097,0.37946,0.51268,1.0402,1.5529,0.65211,0.34789,0.96569,2.6929,0.27185,1.0255,2.0289,1.3124,0.96903,0.66985,0.017882,2.8363,0.047985,0.022583,0.15684,0.025401,3.359,0.47038,1.3095,1.8646,0.43681,0.67531,1.5529,0.65252,0.85446,1.2167,0.073929,0.094846,0.53089,0.38627,0.4774,0.3,1.41,0.4711,0,0.38012,1e-08,1000,0.046862,1
0.6566,0.14391,0.44767,0.4355,0.68101,5.5,1.198,1.1904,1.558,0.23621,0.19842,0.37859,0.51842,1.061,1.5794,0.64928,0.35072,0.97724,2.7175,0.26908,1.0228,2.0466,1.3088,0.96901,0.67176,0.019564,2.8479,0.048094,0.022635,0.15638,0.025459,3.3878,0.46864,1.3275,1.8835,0.4355,0.68101,1.5794,0.65681,0.87193,1.2371,0.073012,0.094294,0.5305,0.39043,0.4774,0.3,1.41,0.4711,0,0.38012,1e-08,1000,0.047716,1
0.66834,0.14358,0.44776,0.4342,0.68663,5.6,1.1937,1.2071,1.5756,0.23654,0.19595,0.37772,0.52414,1.0819,1.606,0.64651,0.35349,0.98874,2.7421,0.26638,1.02,2.064,1.3052,0.96899,0.67363,0.021225,2.8592,0.048202,0.022686,0.15592,0.025516,3.4165,0.46691,1.3456,1.9024,0.4342,0.68663,1.606,0.66099,0.88942,1.2575,0.072111,0.093743,0.53011,0.39453,0.4774,0.3,1.41,0.4711,0,0.38012,1e-08,1000,0.048571,1
0.6801,0.14324,0.44784,0.43293,0.69218,5.7,1.1896,1.2238,1.5931,0.23687,0.19355,0.37684,0.52983,1.1027,1.6326,0.64379,0.35621,1.0002,2.7666,0.26375,1.0174,2.0813,1.3018,0.96897,0.67546,0.022865,2.8705,0.048308,0.022735,0.15547,0.025572,3.4451,0.46518,1.3636,1.9213,0.43293,0.69218,1.6326,0.66508,0.90691,1.2778,0.071227,0.093192,0.52972,0.39859,0.4774,0.3,1.41,0.4711,0,0.38012,1e-08,1000,0.049427,1
0.69188,0.14291,0.44792,0.43169,0.69765,5.8,1.1856,1.2404,1.6107,0.23721,0.19123,0.37597,0.53548,1.1237,1.6592,0.64112,0.35888,1.0116,2.791,0.26117,1.0149,2.0984,1.2985,0.96894,0.67726,0.024485,2.8816,0.048412,0.022784,0.15502,0.025628,3.4735,0.46344,1.3816,1.9402,0.43169,0.69765,1.6592,0.66908,0.92441,1.2981,0.070359,0.092643,0.52933,0.4026,0.4774,0.3,1.41,0.4711,0,0.38012,1e-08,1000,0.050285,1
0.70367,0.14258,0.448,0.43046,0.70305,5.9,1.1817,1.257,1.6281,0.23754,0.18897,0.37509,0.54111,1.1447,1.6858,0.63849,0.36151,1.023,2.8154,0.25866,1.0124,2.1154,1.2952,0.96892,0.67901,0.026086,2.8925,0.048514,0.022832,0.15458,0.025683,3.5019,0.46171,1.3996,1.959,0.43046,0.70305,1.6858,0.67299,0.94192,1.3184,0.069507,0.092095,0.52895,0.40657,0.4774,0.3,1.41,0.4711,0,0.38012,1e-08,1000,0.051144,1
0.71548,0.14224,0.44807,0.42926,0.70838,6,1.1779,1.2736,1.6455,0.23787,0.18677,0.37421,0.54671,1.1657,1.7124,0.6359,0.3641,1.0343,2.8397,0.2562,1.01,2.1321,1.292,0.9689,0.68073,0.027669,2.9033,0.048615,0.022878,0.15414,0.025737,3.5301,0.45999,1.4176,1.9779,0.42926,0.70838,1.7124,0.67681,0.95944,1.3386,0.06867,0.091549,0.52857,0.41049,0.4774,0.3,1.41,0.4711,0,0.38012,1e-08,1000,0.052003,1
