note,b,s,t,L,H,AH,thetastar,wL,wH,eduprice,eduprice_wL,subsidy_share,zbarL,zbarH,zbar,empL,empH,avgwL,avgwH,cwp,cwp_emp,earnings_premium,wrat,xi,alpha,wedge,delta,qL,qH,alphaterm,qLminqH,beta,rho,zLthetastar,zHthetastar,Lcheck,Hcheck,Y,fthetastar,zL_f_thetastar,zH_f_thetastar,eps_s_thetastar,target_eps_s_thetastar,hoursL,hoursH,gamma,epsilon,sigma,sigma_theta,mu_theta,p,lb,ub,obj,r
1,9.672e-05,4.3503e-05,9.8444e-05,0.54291,0.63611,3,1.3075,0.79193,1.0664,0.38007,0.47994,0.00011445,0.42994,0.67833,1.1083,0.71535,0.28465,0.68593,1.97,0.29756,1.055,1.5777,1.3466,0.89999,0.61206,-1.6706e-05,2.5914,0.10001,0.10001,0.1684,7.2559e-06,3.1173,8.8046e-05,1.0463,1.5404,0.54291,0.63611,1.1083,0.55086,0.57634,0.84855,1.4763e-05,0.092896,0.62681,0.34434,0.4774,0.3,1.41,0.4711,0,0.38012,0.0001,10,0.074442,0.0001
1,9.7737e-05,4.3884e-05,9.6871e-05,0.54036,0.64653,3.1,1.2988,0.81068,1.0858,0.38007,0.46883,0.00011545,0.43806,0.70202,1.1401,0.71053,0.28946,0.6994,1.9969,0.29222,1.0491,1.6026,1.3394,0.89999,0.61577,-1.7127e-05,2.6093,0.10001,0.10001,0.1678,7.2741e-06,3.1639,8.8816e-05,1.0693,1.5634,0.54036,0.64653,1.1401,0.55896,0.59769,0.8739,1.468e-05,0.092306,0.62633,0.35155,0.4774,0.3,1.41,0.4711,0,0.38012,0.0001,10,0.076705,0.0001
1,0.00010454,4.5071e-05,0.00010052,0.53786,0.65671,3.2,1.2905,0.82935,1.1052,0.38007,0.45828,0.00011857,0.44608,0.72577,1.1718,0.70585,0.29415,0.71277,2.0237,0.2871,1.0435,1.627,1.3326,0.89999,0.61934,-1.6917e-05,2.6267,0.10001,0.10001,0.1672,7.2919e-06,3.2104,9.1219e-05,1.0922,1.5864,0.53786,0.65671,1.1718,0.56679,0.61908,0.89915,1.4866e-05,0.091692,0.62584,0.35863,0.4774,0.3,1.41,0.4711,0,0.38012,0.0001,10,0.078972,0.0001
1,0.0001207,4.6859e-05,0.00011191,0.53543,0.66667,3.3,1.2825,0.84795,1.1244,0.38007,0.44822,0.00012328,0.45402,0.74958,1.2036,0.70129,0.29871,0.72605,2.0504,0.28216,1.0382,1.651,1.326,0.89999,0.62278,-1.5098e-05,2.6438,0.10001,0.10001,0.16661,7.3077e-06,3.2567,9.484e-05,1.1152,1.6093,0.53543,0.66667,1.2036,0.57436,0.64049,0.92431,1.5241e-05,0.091057,0.62533,0.36558,0.4774,0.3,1.41,0.4711,0,0.38012,0.0001,10,0.081242,0.0001
1,0.00013313,4.7683e-05,0.00011947,0.53306,0.67641,3.4,1.2748,0.86648,1.1435,0.38007,0.43864,0.00012544,0.46188,0.77346,1.2353,0.69685,0.30315,0.73923,2.0769,0.2774,1.033,1.6746,1.3197,0.89999,0.62611,-1.3343e-05,2.6606,0.10001,0.10001,0.16603,7.3251e-06,3.3029,9.6507e-05,1.138,1.6321,0.53306,0.67641,1.2353,0.58167,0.66195,0.94938,1.5296e-05,0.090405,0.62482,0.37241,0.4774,0.3,1.41,0.4711,0,0.38012,0.0001,10,0.083516,0.0001
1,0.00013686,0.00010924,0.00013452,0.53073,0.68596,3.5,1.2674,0.88495,1.1625,0.38001,0.42941,0.00028738,0.46967,0.79741,1.2671,0.69251,0.30749,0.75233,2.1032,0.27278,1.0281,1.6978,1.3136,0.89999,0.62933,-7.0107e-05,2.6771,0.10001,0.10001,0.16544,7.3425e-06,3.3494,0.00022113,1.1608,1.6549,0.53073,0.68596,1.2671,0.58878,0.68345,0.97436,3.4567e-05,0.089729,0.62429,0.37913,0.4774,0.3,1.41,0.4711,0,0.38012,0.0001,10,0.085793,0.0001
1,0.00014244,4.8256e-05,0.00012125,0.52848,0.69528,3.6,1.2603,0.90332,1.1814,0.38007,0.42075,0.00012695,0.47739,0.82141,1.2988,0.68831,0.31169,0.76532,2.1296,0.26839,1.0234,1.7206,1.3079,0.89999,0.63244,-1.2569e-05,2.6932,0.10002,0.10001,0.16487,7.3572e-06,3.3951,9.7667e-05,1.1836,1.6777,0.52848,0.69528,1.2988,0.59561,0.70494,0.99926,1.5064e-05,0.089058,0.62378,0.38572,0.4774,0.3,1.41,0.4711,0,0.38012,0.0001,10,0.088073,0.0001
1,0.00014561,0.00010248,0.00013376,0.52626,0.70444,3.7,1.2534,0.92166,1.2002,0.38001,0.41232,0.00026961,0.48503,0.84549,1.3305,0.68418,0.31582,0.77825,2.1557,0.26408,1.0188,1.7431,1.3022,0.89999,0.63546,-6.2681e-05,2.7091,0.10002,0.10001,0.16429,7.3746e-06,3.4414,0.00020745,1.2063,1.7003,0.52626,0.70444,1.3305,0.60227,0.7265,1.0241,3.1567e-05,0.088361,0.62324,0.39221,0.4774,0.3,1.41,0.4711,0,0.38012,0.0001,10,0.090357,0.0001
1,0.00015017,4.7199e-05,0.00012132,0.52412,0.7134,3.8,1.2468,0.9399,1.219,0.38007,0.40437,0.00012417,0.49262,0.86961,1.3622,0.68018,0.31982,0.79108,2.1818,0.25998,1.0145,1.7653,1.2969,0.89999,0.63837,-1.0708e-05,2.7246,0.10002,0.10001,0.16373,7.3889e-06,3.4869,9.5528e-05,1.2289,1.7231,0.52412,0.7134,1.3622,0.60869,0.74804,1.0488,1.4346e-05,0.087671,0.62272,0.39858,0.4774,0.3,1.41,0.4711,0,0.38012,0.0001,10,0.092644,0.0001
1,0.00015296,9.663e-05,0.00013217,0.522,0.72221,3.9,1.2404,0.95811,1.2376,0.38002,0.39663,0.00025421,0.50013,0.8938,1.3939,0.67626,0.32374,0.80385,2.2076,0.25595,1.0103,1.7871,1.2917,0.89999,0.64121,-5.647e-05,2.7399,0.10002,0.10001,0.16316,7.4052e-06,3.533,0.0001956,1.2515,1.7456,0.522,0.72221,1.3939,0.61495,0.76964,1.0735,2.8989e-05,0.086961,0.62217,0.40487,0.4774,0.3,1.41,0.4711,0,0.38012,0.0001,10,0.094934,0.0001
1,0.00015541,0.00011366,0.00013512,0.51993,0.73085,4,1.2342,0.97626,1.2561,0.38,0.38924,0.00029902,0.50759,0.91805,1.4256,0.67243,0.32757,0.81654,2.2335,0.25208,1.0062,1.8086,1.2867,0.89999,0.64396,-7.2205e-05,2.7549,0.10002,0.10001,0.16261,7.4195e-06,3.5788,0.00023009,1.2741,1.7682,0.51993,0.73085,1.4256,0.62101,0.79124,1.0981,3.3661e-05,0.086251,0.62163,0.41105,0.4774,0.3,1.41,0.4711,0,0.38012,0.0001,10,0.097228,0.0001
1,0.00015896,4.5577e-05,0.00011944,0.51794,0.73931,4.1,1.2282,0.99432,1.2746,0.38007,0.38224,0.0001199,0.51499,0.94235,1.4573,0.66871,0.33129,0.82915,2.2592,0.24837,1.0024,1.8298,1.2819,0.89999,0.64662,-8.5794e-06,2.7696,0.10002,0.10001,0.16206,7.433e-06,3.624,9.2244e-05,1.2967,1.7908,0.51794,0.73931,1.4573,0.62686,0.81283,1.1226,1.3324e-05,0.08555,0.62111,0.41711,0.4774,0.3,1.41,0.4711,0,0.38012,0.0001,10,0.099525,0.0001
1,0.00016148,9.0421e-05,0.00012879,0.51596,0.74763,4.2,1.2224,1.0124,1.293,0.38003,0.37539,0.00023788,0.52233,0.96672,1.489,0.66505,0.33494,0.8417,2.2848,0.24471,0.99862,1.8508,1.2773,0.89999,0.64922,-5.0169e-05,2.7841,0.10002,0.10001,0.16151,7.5141e-06,3.6699,0.00018303,1.3192,1.8133,0.51596,0.74763,1.489,0.63258,0.83448,1.147,2.6102e-05,0.084831,0.62057,0.42311,0.4774,0.3,1.41,0.4711,0,0.38012,0.0001,10,0.10183,0.0001
1,0.00016367,0.00010637,0.0001313,0.51403,0.75581,4.3,1.2168,1.0303,1.3114,0.38001,0.36882,0.00027983,0.52962,0.99114,1.5208,0.66149,0.33851,0.85418,2.3103,0.24119,0.995,1.8714,1.2728,0.89999,0.65174,-6.4973e-05,2.7984,0.10002,0.10001,0.16098,7.5267e-06,3.7154,0.00021532,1.3416,1.8357,0.51403,0.75581,1.5208,0.63812,0.85614,1.1714,3.0323e-05,0.084116,0.62003,0.429,0.4774,0.3,1.41,0.4711,0,0.38012,0.0001,10,0.10413,0.0001
1,0.0001657,0.00011181,0.00013136,0.51214,0.76383,4.4,1.2114,1.0483,1.3296,0.38001,0.36251,0.00029415,0.53685,1.0156,1.5525,0.658,0.342,0.86659,2.3357,0.23777,0.99152,1.8918,1.2684,0.89999,0.65419,-7.0045e-05,2.8124,0.10002,0.10001,0.16044,7.5392e-06,3.7609,0.00022634,1.3641,1.8582,0.51214,0.76383,1.5525,0.64351,0.8778,1.1957,3.1481e-05,0.083402,0.6195,0.43481,0.4774,0.3,1.41,0.4711,0,0.38012,0.0001,10,0.10644,0.0001
1,0.00016769,0.00011316,0.00013053,0.5103,0.77173,4.5,1.2061,1.0661,1.3478,0.38,0.35644,0.0002977,0.54404,1.0401,1.5842,0.65459,0.34541,0.87894,2.3611,0.23446,0.98815,1.9119,1.2642,0.89999,0.65658,-7.1322e-05,2.8262,0.10002,0.10001,0.15992,7.5514e-06,3.8063,0.00022906,1.3865,1.8806,0.5103,0.77173,1.5842,0.64874,0.89947,1.22,3.1471e-05,0.082691,0.61897,0.44054,0.4774,0.3,1.41,0.4711,0,0.38012,0.0001,10,0.10875,0.0001
1,0.00016967,0.00011285,0.00012936,0.50849,0.77949,4.6,1.201,1.0839,1.3659,0.38,0.35058,0.00029688,0.55117,1.0647,1.6159,0.65125,0.34875,0.89123,2.3863,0.23124,0.98491,1.9317,1.2602,0.89999,0.65891,-7.1064e-05,2.8398,0.10002,0.10001,0.1594,7.5634e-06,3.8516,0.00022844,1.4089,1.9029,0.50849,0.77949,1.6159,0.65382,0.92115,1.2442,3.1006e-05,0.081982,0.61844,0.44618,0.4774,0.3,1.41,0.4711,0,0.38012,0.0001,10,0.11106,0.0001
1,0.00017167,0.000112,0.00012812,0.50672,0.78712,4.7,1.196,1.1017,1.384,0.38,0.34493,0.00029466,0.55826,1.0894,1.6476,0.64799,0.35201,0.90345,2.4115,0.22811,0.98177,1.9514,1.2562,0.89999,0.66117,-7.0302e-05,2.8532,0.10002,0.10001,0.15888,7.5751e-06,3.8968,0.00022672,1.4312,1.9253,0.50672,0.78712,1.6476,0.65877,0.94285,1.2683,3.0405e-05,0.081276,0.61791,0.45174,0.4774,0.3,1.41,0.4711,0,0.38012,0.0001,10,0.11338,0.0001
1,0.00017369,0.00011097,0.0001269,0.50499,0.79463,4.8,1.1911,1.1194,1.402,0.38001,0.33947,0.00029194,0.5653,1.114,1.6793,0.64479,0.35521,0.91562,2.4365,0.22508,0.97873,1.9707,1.2524,0.89999,0.66338,-6.9365e-05,2.8664,0.10002,0.10001,0.15837,7.5865e-06,3.942,0.00022463,1.4535,1.9476,0.50499,0.79463,1.6793,0.66358,0.96455,1.2924,2.9768e-05,0.080573,0.61739,0.45722,0.4774,0.3,1.41,0.4711,0,0.38012,0.0001,10,0.1157,0.0001
1,0.00017572,0.00010983,0.0001257,0.5033,0.80202,4.9,1.1864,1.1371,1.4199,0.38001,0.33419,0.00028893,0.5723,1.1388,1.7111,0.64166,0.35834,0.92773,2.4615,0.22212,0.9758,1.9899,1.2487,0.89999,0.66554,-6.8327e-05,2.8793,0.10002,0.10001,0.15787,7.5976e-06,3.9871,0.00022232,1.4758,1.9699,0.5033,0.80202,1.7111,0.66827,0.98626,1.3164,2.9116e-05,0.079875,0.61687,0.46263,0.4774,0.3,1.41,0.4711,0,0.38012,0.0001,10,0.11802,0.0001
1,0.00017777,0.00010871,0.00012454,0.50164,0.80929,5,1.1819,1.1547,1.4378,0.38001,0.32909,0.00028598,0.57925,1.1636,1.7428,0.63859,0.36141,0.93979,2.4865,0.21925,0.97295,2.0088,1.2451,0.89999,0.66764,-6.7305e-05,2.8921,0.10002,0.10001,0.15737,7.6028e-06,4.0322,0.00022005,1.4981,1.9922,0.50164,0.80929,1.7428,0.67283,1.008,1.3404,2.8484e-05,0.079181,0.61636,0.46797,0.4774,0.3,1.41,0.4711,0,0.38012,0.0001,10,0.12034,0.0001
1,0.00017984,0.00010775,0.00012346,0.50001,0.81645,5.1,1.1774,1.1723,1.4556,0.38001,0.32416,0.00028346,0.58616,1.1884,1.7746,0.63559,0.36441,0.9518,2.5113,0.21646,0.9702,2.0275,1.2417,0.89999,0.66969,-6.6432e-05,2.9047,0.10002,0.10001,0.15688,7.6132e-06,4.0772,0.0002181,1.5204,2.0144,0.50001,0.81645,1.7746,0.67727,1.0297,1.3643,2.7908e-05,0.078492,0.61585,0.47324,0.4774,0.3,1.41,0.4711,0,0.38012,0.0001,10,0.12267,0.0001
1,0.00018191,0.00010677,0.00012242,0.49842,0.82351,5.2,1.1731,1.1898,1.4734,0.38001,0.31938,0.00028088,0.59303,1.2133,1.8064,0.63264,0.36736,0.96375,2.536,0.21373,0.96753,2.046,1.2383,0.89999,0.6717,-6.554e-05,2.9171,0.10002,0.10001,0.1564,7.6235e-06,4.1222,0.00021612,1.5426,2.0366,0.49842,0.82351,1.8064,0.6816,1.0514,1.3882,2.734e-05,0.077808,0.61534,0.47843,0.4774,0.3,1.41,0.4711,0,0.38012,0.0001,10,0.12501,0.0001
1,0.000184,0.00010593,0.00012144,0.49685,0.83046,5.3,1.1689,1.2073,1.4911,0.38001,0.31475,0.00027869,0.59987,1.2383,1.8381,0.62976,0.37024,0.97565,2.5607,0.21108,0.96495,2.0643,1.235,0.89999,0.67366,-6.4784e-05,2.9293,0.10002,0.10001,0.15592,7.6335e-06,4.1671,0.00021443,1.5648,2.0588,0.49685,0.83046,1.8381,0.68582,1.0732,1.412,2.6821e-05,0.077129,0.61484,0.48356,0.4774,0.3,1.41,0.4711,0,0.38012,0.0001,10,0.12734,0.0001
1,0.0001861,0.00010506,0.00012048,0.49532,0.83732,5.4,1.1647,1.2248,1.5087,0.38001,0.31027,0.00027638,0.60666,1.2633,1.8699,0.62693,0.37307,0.9875,2.5853,0.2085,0.96244,2.0823,1.2318,0.89999,0.67557,-6.3989e-05,2.9413,0.10002,0.10001,0.15544,7.6433e-06,4.212,0.00021266,1.5869,2.081,0.49532,0.83732,1.8699,0.68994,1.0949,1.4358,2.6303e-05,0.076457,0.61434,0.48863,0.4774,0.3,1.41,0.4711,0,0.38012,0.0001,10,0.12968,0.0001
1,0.0001882,0.00010428,0.00011957,0.49382,0.84407,5.5,1.1607,1.2422,1.5263,0.38001,0.30592,0.00027433,0.61342,1.2883,1.9017,0.62415,0.37585,0.9993,2.6099,0.20598,0.96001,2.1002,1.2287,0.89999,0.67744,-6.328e-05,2.9532,0.10002,0.10001,0.15497,7.6529e-06,4.2568,0.00021108,1.6091,2.1032,0.49382,0.84407,1.9017,0.69395,1.1166,1.4595,2.5819e-05,0.075791,0.61385,0.49363,0.4774,0.3,1.41,0.4711,0,0.38012,0.0001,10,0.13202,0.0001
1,0.00019032,0.00010346,0.00011869,0.49234,0.85073,5.6,1.1568,1.2596,1.5439,0.38001,0.3017,0.00027219,0.62014,1.3134,1.9336,0.62142,0.37858,1.0111,2.6344,0.20352,0.95765,2.1179,1.2257,0.89999,0.67927,-6.2541e-05,2.9649,0.10002,0.10001,0.15451,7.6622e-06,4.3016,0.00020943,1.6312,2.1253,0.49234,0.85073,1.9336,0.69786,1.1384,1.4832,2.5338e-05,0.075131,0.61336,0.49857,0.4774,0.3,1.41,0.4711,0,0.38012,0.0001,10,0.13436,0.0001
1,0.00019245,0.0001028,0.00011786,0.4909,0.8573,5.7,1.153,1.2769,1.5614,0.38001,0.29761,0.00027045,0.62683,1.3386,1.9654,0.61875,0.38125,1.0228,2.6588,0.20113,0.95535,2.1355,1.2228,0.89999,0.68107,-6.1943e-05,2.9765,0.10002,0.10001,0.15405,7.6714e-06,4.3464,0.00020809,1.6534,2.1474,0.4909,0.8573,1.9654,0.70168,1.1601,1.5068,2.4903e-05,0.074477,0.61288,0.50345,0.4774,0.3,1.41,0.4711,0,0.38012,0.0001,10,0.13671,0.0001
1,0.00019455,0.00010218,0.00011705,0.48948,0.86378,5.8,1.1493,1.2942,1.5788,0.38001,0.29363,0.00026881,0.63348,1.3638,1.9972,0.61612,0.38388,1.0344,2.6831,0.19879,0.95313,2.1528,1.2199,0.89999,0.68282,-6.1385e-05,2.9879,0.10002,0.10001,0.1536,7.6112e-06,4.3911,0.00020683,1.6755,2.1695,0.48948,0.86378,1.9972,0.70541,1.1819,1.5304,2.4487e-05,0.07383,0.6124,0.50827,0.4774,0.3,1.41,0.4711,0,0.38012,0.0001,10,0.13906,0.0001
1,0.00019662,0.00010184,0.0001163,0.48808,0.87017,5.9,1.1456,1.3115,1.5962,0.38002,0.28977,0.00026793,0.6401,1.389,2.0291,0.61355,0.38645,1.046,2.7074,0.19651,0.95096,2.17,1.2171,0.89999,0.68454,-6.1102e-05,2.9991,0.10002,0.10001,0.15315,7.6144e-06,4.4358,0.00020615,1.6975,2.1916,0.48808,0.87017,2.0291,0.70904,1.2036,1.5539,2.4147e-05,0.07319,0.61192,0.51304,0.4774,0.3,1.41,0.4711,0,0.38012,0.0001,10,0.14142,0.0001
1,0.00019871,0.00010129,0.00011553,0.48671,0.87648,6,1.1421,1.3287,1.6136,0.38002,0.28601,0.00026648,0.64669,1.4143,2.061,0.61101,0.38898,1.0576,2.7316,0.19428,0.94886,2.187,1.2144,0.89999,0.68622,-6.0618e-05,3.0102,0.10002,0.10001,0.15271,7.6176e-06,4.4804,0.00020504,1.7196,2.2137,0.48671,0.87648,2.061,0.7126,1.2254,1.5775,2.3764e-05,0.072557,0.61145,0.51775,0.4774,0.3,1.41,0.4711,0,0.38012,0.0001,10,0.14377,0.0001
