# Version with for loop over atheta
# Try to model Mirrlees problem with constraints that are closer to the formulation of the original problem

# Load gnu scientific library
load amplgsl.dll;
load include/my_lognormal.dll;
#########################################################################################
# Parameters for wagegrid
param wmin := 1;
param wmax := 100;
param nI := 100;

# Parameters for wage densities
param mu_theta := 3;
param mu_phi := 3;

param sigma_theta := 0.5;
param sigma_phi := 0.5;

# Parameters for marginal products
param alpha := 0.5;
param a_theta;
param a_phi := 1;
param rho := 1/3;

param tau;

# For now, treat x as a parameter
#param x := 1.1;


#########################################################################################
# Generate wage grid
set I = 1..nI;
param dw = (wmax - wmin)/(nI-1);
param w {i in I} = wmin + (i-1)* dw;

# Read in thresholds wtilde and what
param wtilde {I};
read {i in I} wtilde[i] < "./output/wtilde.csv";

param what {I};
read {i in I} what[i] < "./output/what.csv";


#########################################################################################


param ETI := 0.25;		#U: Elasticity of substitution (leisure, labor)
param k := 1/ETI;
param r := 1.3;			#concavity parameter for welfare weights
param eps := 1e-5;

#########################################################################################
# Read in starting values
#param c_start{I};
#param y_start{I};
#param x_start;
#read x_start, {i in I} (c_start[i], y_start[i]) < rs_startingvalues.txt ;

#########################################################################################
# Optimization variables
var c {i in I} >= eps;#, :=c_start[i];
var y {i in I} >= eps;#, :=y_start[i];
#var x >= eps, :=1.2;
#var x >=eps, :=5;
#var x = 0.8;
var x >=eps;#, :=x_start;


#########################################################################################
# Implement marginal products
var yy_phi = (alpha/(1-alpha)*(a_theta/a_phi*x)^rho+1)^((1-rho)/rho)*(1-alpha)^(1/rho)*a_phi;# >=eps;
var yy_theta = (1+(1-alpha)/alpha*(a_theta/a_phi*x)^(-rho))^((1-rho)/rho)*alpha^(1/rho)*a_theta;# >=eps;

#########################################################################################
# Calculate alphax
var alphax = x*yy_theta/(x*yy_theta + yy_phi);#>=eps;

#########################################################################################
# Implement wage densities
function gsl_ran_lognormal_pdf;
function gsl_cdf_lognormal_P;
function my_lognorm_cdf;

param pi = 4 * atan(1);

var f_theta {i in I} = 1/(sqrt(2*pi)*sigma_theta*w[i]/yy_theta) * (exp(-(log(w[i]/yy_theta)-mu_theta)^2/(2*sigma_theta^2)));
var f_phi {i in I} = 1/(sqrt(2*pi)*sigma_phi*w[i]/yy_phi) *( exp(-(log(w[i]/yy_phi)-mu_phi)^2/(2*sigma_phi^2)));

var F_theta {i in I} = my_lognorm_cdf(what[i]/yy_theta,mu_theta,sigma_theta);
var F_phi {i in I} = my_lognorm_cdf(wtilde[i]/yy_phi,mu_phi,sigma_phi);

var f_thetax_raw {i in I} = 1/yy_theta * f_theta[i] * F_phi[i]; 
var f_phix_raw {i in I} = 1/yy_phi * f_phi[i] * F_theta[i];

var f_x_raw {i in I} = f_thetax_raw[i] + f_phix_raw[i];

# Implement wage distribution
var ff_x_raw {i in I} = sum {j in 1..i} f_x_raw[j] * dw;
var ff_phix_raw {i in I} = sum {j in 1..i} f_phix_raw[j] * dw;
var ff_thetax_raw {i in I} = sum {j in 1..i} f_thetax_raw[j] * dw;

#var norm = ff_x_raw[nI];
#########################################################################################
# Normalization
var mass_theta = F_theta[nI];
var mass_phi = F_phi[nI];

var norm = mass_theta + mass_phi;

#param norm = 1;
# Normalize such that ff_x is 1 at wmax
var f_thetax {i in I} = f_thetax_raw[i]/norm;
var f_phix {i in I} = f_phix_raw[i]/norm;
var f_x {i in I} = f_x_raw[i]/norm;
var ff_x {i in I} = ff_x_raw[i]/norm;
var ff_phix {i in I} = ff_phix_raw[i]/norm;
var ff_thetax {i in I} = ff_thetax_raw[i]/norm;


#########################################################################################
# Other things

# Utility function
var util {i in I} = c[i] - (y[i]/w[i])^(1+k)/(1+k); # Quasi-linear

# Utility of imitating adjacent type below
var utilDown {i in 2..nI} = c[i-1] - (y[i-1]/w[i])^(1+k)/(1+k);

# Welfare weights
var G {i in I} = 1-(1-ff_x[i])^r;
var gg_phix {i in I} = 1-(1-ff_phix[i])^r;
var gg_thetax {i in I} = 1-(1-ff_thetax[i])^r;

# Derive density from welfare weights
#var g {i in I} = if i=1 then G[1] else G[i] - G[i-1]; #U: derive density from CDF

var g {i in I} = f_x[i]*r*(1-ff_x[i])^(r-1); #altenative definition

# Tax revenue
var surplus = sum {i in I} f_x[i]*(y[i] - c[i]) - ff_thetax[nI] * tau;

# Marginal tax rate (derived from FOC for effort)
var mtr {i in I} = 1 - y[i]^k/w[i]^(k+1);# <=1;#, := 1-1/(1+(G[i]-F[i])/w[i]*f_x[i] *(1+k));

#########################################################################################
# Bring one-dimensional variables in vector form

var x_vec {i in I} = x;
param a_theta_vec {i in I} = a_theta;
param a_phi_vec {i in I} = a_phi;
param rho_vec {i in I} = rho;
param alpha_vec {i in I} = alpha;
param mu_theta_vec {i in I} = mu_theta;
param mu_phi_vec {i in I} = mu_phi;
param sigma_theta_vec {i in I} = sigma_theta;
param sigma_phi_vec {i in I} = sigma_phi;
param tau_vec {i in I} = tau;
var yy_theta_vec {i in I} = yy_theta;
var yy_phi_vec {i in I} = yy_phi;

#########################################################################################
# Objective function and constraints
maximize SWF: sum {i in I} g[i]*util[i]*dw + gg_thetax[nI] * tau;
subject to
    ICconstr {i in 2..nI}: util[i] >= utilDown[i];
    BudgetConstraint: surplus = 0;
    yIncr {i in 2..nI}: y[i] >= y[i-1];
 #   UtilConstr {i in I}: c[i] - (y[i]/w[i])^(1+k)/(1+k) >= eps;
  
    ConsistencyCondition: (1-alphax) * sum {i in I} (y[i] * f_thetax[i] * dw) - alphax *  sum {i in I} (y[i] * f_phix[i] * dw) = 0;
  